Data 3/19V/F0032CH1.CSV

Record Length,2.500000e+03,,  -0.000005000000,  -1.76240,
Sample Interval,2.000000e-08,,  -0.000004980000,  -1.76240,
Trigger Point,2.500000000000e+02,,  -0.000004960000,  -1.76320,
,,,  -0.000004940000,  -1.76240,
,,,  -0.000004920000,  -1.76240,
,,,  -0.000004900000,  -1.76320,
Source,CH1,,  -0.000004880000,  -1.76320,
Vertical Units,V,,  -0.000004860000,  -1.76320,
Vertical Scale,2.000000e-02,,  -0.000004840000,  -1.76320,
Vertical Offset,1.739200e+00,,  -0.000004820000,  -1.76320,
Horizontal Units,s,,  -0.000004800000,  -1.76320,
Horizontal Scale,5.000000e-06,,  -0.000004780000,  -1.76400,
Pt Fmt,Y,,  -0.000004760000,  -1.76400,
Yzero,0.000000e+00,,  -0.000004740000,  -1.76400,
Probe Atten,1.000000e+01,,  -0.000004720000,  -1.76480,
Model Number,TBS1052B,,  -0.000004700000,  -1.76480,
Serial Number,C031782,,  -0.000004680000,  -1.76480,
Firmware Version,FV:v4.06,,  -0.000004660000,  -1.76480,
,,,-00.000004640000,  -1.76480,
,,,-00.000004620000,  -1.76480,
,,,-00.000004600000,  -1.76560,
,,,-00.000004580000,  -1.76480,
,,,-00.000004560000,  -1.76480,
,,,-00.000004540000,  -1.76480,
,,,-00.000004520000,  -1.76480,
,,,-00.000004500000,  -1.76480,
,,,-00.000004480000,  -1.76480,
,,,-00.000004460000,  -1.76400,
,,,-00.000004440000,  -1.76480,
,,,-00.000004420000,  -1.76400,
,,,-00.000004400000,  -1.76400,
,,,-00.000004380000,  -1.76400,
,,,-00.000004360000,  -1.76320,
,,,-00.000004340000,  -1.76240,
,,,-00.000004320000,  -1.76240,
,,,-00.000004300000,  -1.76160,
,,,-00.000004280000,  -1.76240,
,,,-00.000004260000,  -1.76240,
,,,-00.000004240000,  -1.76160,
,,,-00.000004220000,  -1.76160,
,,,-00.000004200000,  -1.76160,
,,,-00.000004180000,  -1.76160,
,,,-00.000004160000,  -1.76160,
,,,-00.000004140000,  -1.76160,
,,,-00.000004120000,  -1.76160,
,,,-00.000004100000,  -1.76160,
,,,-00.000004080000,  -1.76160,
,,,-00.000004060000,  -1.76080,
,,,-00.000004040000,  -1.76160,
,,,-00.000004020000,  -1.76080,
,,,-00.000004000000,  -1.76080,
,,,-00.000003980000,  -1.76160,
,,,-00.000003960000,  -1.76160,
,,,-00.000003940000,  -1.76160,
,,,-00.000003920000,  -1.76160,
,,,-00.000003900000,  -1.76160,
,,,-00.000003880000,  -1.76080,
,,,-00.000003860000,  -1.76160,
,,,-00.000003840000,  -1.76160,
,,,-00.000003820000,  -1.76160,
,,,-00.000003800000,  -1.76080,
,,,-00.000003780000,  -1.76080,
,,,-00.000003760000,  -1.76160,
,,,-00.000003740000,  -1.76160,
,,,-00.000003720000,  -1.76160,
,,,-00.000003700000,  -1.76160,
,,,-00.000003680000,  -1.76160,
,,,-00.000003660000,  -1.76160,
,,,-00.000003640000,  -1.76160,
,,,-00.000003620000,  -1.76240,
,,,-00.000003600000,  -1.76160,
,,,-00.000003580000,  -1.76160,
,,,-00.000003560000,  -1.76160,
,,,-00.000003540000,  -1.76160,
,,,-00.000003520000,  -1.76160,
,,,-00.000003500000,  -1.76160,
,,,-00.000003480000,  -1.76160,
,,,-00.000003460000,  -1.76160,
,,,-00.000003440000,  -1.76160,
,,,-00.000003420000,  -1.76160,
,,,-00.000003400000,  -1.76160,
,,,-00.000003380000,  -1.76160,
,,,-00.000003360000,  -1.76160,
,,,-00.000003340000,  -1.76160,
,,,-00.000003320000,  -1.76160,
,,,-00.000003300000,  -1.76160,
,,,-00.000003280000,  -1.76160,
,,,-00.000003260000,  -1.76160,
,,,-00.000003240000,  -1.76160,
,,,-00.000003220000,  -1.76240,
,,,-00.000003200000,  -1.76160,
,,,-00.000003180000,  -1.76240,
,,,-00.000003160000,  -1.76240,
,,,-00.000003140000,  -1.76160,
,,,-00.000003120000,  -1.76240,
,,,-00.000003100000,  -1.76240,
,,,-00.000003080000,  -1.76240,
,,,-00.000003060000,  -1.76240,
,,,-00.000003040000,  -1.76160,
,,,-00.000003020000,  -1.76240,
,,,-00.000003000000,  -1.76240,
,,,-00.000002980000,  -1.76320,
,,,-00.000002960000,  -1.76320,
,,,-00.000002940000,  -1.76240,
,,,-00.000002920000,  -1.76240,
,,,-00.000002900000,  -1.76160,
,,,-00.000002880000,  -1.76240,
,,,-00.000002860000,  -1.76240,
,,,-00.000002840000,  -1.76240,
,,,-00.000002820000,  -1.76240,
,,,-00.000002800000,  -1.76240,
,,,-00.000002780000,  -1.76240,
,,,-00.000002760000,  -1.76240,
,,,-00.000002740000,  -1.76240,
,,,-00.000002720000,  -1.76240,
,,,-00.000002700000,  -1.76240,
,,,-00.000002680000,  -1.76240,
,,,-00.000002660000,  -1.76240,
,,,-00.000002640000,  -1.76160,
,,,-00.000002620000,  -1.76240,
,,,-00.000002600000,  -1.76240,
,,,-00.000002580000,  -1.76240,
,,,-00.000002560000,  -1.76160,
,,,-00.000002540000,  -1.76160,
,,,-00.000002520000,  -1.76160,
,,,-00.000002500000,  -1.76160,
,,,-00.000002480000,  -1.76160,
,,,-00.000002460000,  -1.76160,
,,,-00.000002440000,  -1.76080,
,,,-00.000002420000,  -1.76160,
,,,-00.000002400000,  -1.76160,
,,,-00.000002380000,  -1.76160,
,,,-00.000002360000,  -1.76160,
,,,-00.000002340000,  -1.76160,
,,,-00.000002320000,  -1.76160,
,,,-00.000002300000,  -1.76160,
,,,-00.000002280000,  -1.76080,
,,,-00.000002260000,  -1.76080,
,,,-00.000002240000,  -1.76080,
,,,-00.000002220000,  -1.76080,
,,,-00.000002200000,  -1.76160,
,,,-00.000002180000,  -1.76160,
,,,-00.000002160000,  -1.76080,
,,,-00.000002140000,  -1.76080,
,,,-00.000002120000,  -1.76080,
,,,-00.000002100000,  -1.76160,
,,,-00.000002080000,  -1.76080,
,,,-00.000002060000,  -1.76160,
,,,-00.000002040000,  -1.76080,
,,,-00.000002020000,  -1.76080,
,,,-00.000002000000,  -1.76080,
,,,-00.000001980000,  -1.76080,
,,,-00.000001960000,  -1.76080,
,,,-00.000001940000,  -1.76080,
,,,-00.000001920000,  -1.76160,
,,,-00.000001900000,  -1.76080,
,,,-00.000001880000,  -1.76080,
,,,-00.000001860000,  -1.76080,
,,,-00.000001840000,  -1.76160,
,,,-00.000001820000,  -1.76080,
,,,-00.000001800000,  -1.76080,
,,,-00.000001780000,  -1.76160,
,,,-00.000001760000,  -1.76160,
,,,-00.000001740000,  -1.76080,
,,,-00.000001720000,  -1.76080,
,,,-00.000001700000,  -1.76080,
,,,-00.000001680000,  -1.76080,
,,,-00.000001660000,  -1.76160,
,,,-00.000001640000,  -1.76160,
,,,-00.000001620000,  -1.76080,
,,,-00.000001600000,  -1.76080,
,,,-00.000001580000,  -1.76080,
,,,-00.000001560000,  -1.76080,
,,,-00.000001540000,  -1.76080,
,,,-00.000001520000,  -1.76080,
,,,-00.000001500000,  -1.76080,
,,,-00.000001480000,  -1.76080,
,,,-00.000001460000,  -1.76080,
,,,-00.000001440000,  -1.76080,
,,,-00.000001420000,  -1.76000,
,,,-00.000001400000,  -1.76000,
,,,-00.000001380000,  -1.76000,
,,,-00.000001360000,  -1.76000,
,,,-00.000001340000,  -1.76000,
,,,-00.000001320000,  -1.76000,
,,,-00.000001300000,  -1.76000,
,,,-00.000001280000,  -1.76000,
,,,-00.000001260000,  -1.76000,
,,,-00.000001240000,  -1.76000,
,,,-00.000001220000,  -1.76000,
,,,-00.000001200000,  -1.76000,
,,,-00.000001180000,  -1.76000,
,,,-00.000001160000,  -1.75920,
,,,-00.000001140000,  -1.75920,
,,,-00.000001120000,  -1.75920,
,,,-00.000001100000,  -1.76000,
,,,-00.000001080000,  -1.75920,
,,,-00.000001060000,  -1.75920,
,,,-00.000001040000,  -1.75920,
,,,-00.000001020000,  -1.75920,
,,,-00.000001000000,  -1.75920,
,,,-00.000000980000,  -1.75920,
,,,-00.000000960000,  -1.75920,
,,,-00.000000940000,  -1.75920,
,,,-00.000000920000,  -1.75920,
,,,-00.000000900000,  -1.75920,
,,,-00.000000880000,  -1.75920,
,,,-00.000000860000,  -1.75840,
,,,-00.000000840000,  -1.75840,
,,,-00.000000820000,  -1.75840,
,,,-00.000000800000,  -1.75920,
,,,-00.000000780000,  -1.75840,
,,,-00.000000760000,  -1.75920,
,,,-00.000000740000,  -1.75840,
,,,-00.000000720000,  -1.75920,
,,,-00.000000700000,  -1.75840,
,,,-00.000000680000,  -1.75920,
,,,-00.000000660000,  -1.75920,
,,,-00.000000640000,  -1.75920,
,,,-00.000000620000,  -1.75920,
,,,-00.000000600000,  -1.75840,
,,,-00.000000580000,  -1.75920,
,,,-00.000000560000,  -1.75920,
,,,-00.000000540000,  -1.75920,
,,,-00.000000520000,  -1.75920,
,,,-00.000000500000,  -1.75920,
,,,-00.000000480000,  -1.75920,
,,,-00.000000460000,  -1.75920,
,,,-00.000000440000,  -1.75920,
,,,-00.000000420000,  -1.75920,
,,,-00.000000400000,  -1.75920,
,,,-00.000000380000,  -1.75920,
,,,-00.000000360000,  -1.75920,
,,,-00.000000340000,  -1.76000,
,,,-00.000000320000,  -1.75920,
,,,-00.000000300000,  -1.76000,
,,,-00.000000280000,  -1.75920,
,,,-00.000000260000,  -1.75920,
,,,-00.000000240000,  -1.75920,
,,,-00.000000220000,  -1.76000,
,,,-00.000000200000,  -1.75920,
,,,-00.000000180000,  -1.75920,
,,,-00.000000160000,  -1.76000,
,,,-00.000000140000,  -1.76000,
,,,-00.000000120000,  -1.76000,
,,,-00.000000100000,  -1.76000,
,,,-00.000000080000,  -1.76000,
,,,-00.000000060000,  -1.76000,
,,,-00.000000040000,  -1.76000,
,,,-00.000000020000,  -1.76000,
,,,-00.000000000000,  -1.76000,
,,,00.000000020000,  -1.76000,
,,,00.000000040000,  -1.75920,
,,,00.000000060000,  -1.76000,
,,,00.000000080000,  -1.75920,
,,,00.000000100000,  -1.75200,
,,,00.000000120000,  -1.76480,
,,,00.000000140000,  -1.75200,
,,,00.000000160000,  -1.75840,
,,,00.000000180000,  -1.75520,
,,,00.000000200000,  -1.76000,
,,,00.000000220000,  -1.75760,
,,,00.000000240000,  -1.75840,
,,,00.000000260000,  -1.75760,
,,,00.000000280000,  -1.75840,
,,,00.000000300000,  -1.75840,
,,,00.000000320000,  -1.75840,
,,,00.000000340000,  -1.75760,
,,,00.000000360000,  -1.75680,
,,,00.000000380000,  -1.75680,
,,,00.000000400000,  -1.75600,
,,,00.000000420000,  -1.75520,
,,,00.000000440000,  -1.75440,
,,,00.000000460000,  -1.75440,
,,,00.000000480000,  -1.75280,
,,,00.000000500000,  -1.75200,
,,,00.000000520000,  -1.75040,
,,,00.000000540000,  -1.74960,
,,,00.000000560000,  -1.74880,
,,,00.000000580000,  -1.74720,
,,,00.000000600000,  -1.74480,
,,,00.000000620000,  -1.74320,
,,,00.000000640000,  -1.74240,
,,,00.000000660000,  -1.74000,
,,,00.000000680000,  -1.73840,
,,,00.000000700000,  -1.73600,
,,,00.000000720000,  -1.73520,
,,,00.000000740000,  -1.73280,
,,,00.000000760000,  -1.73120,
,,,00.000000780000,  -1.73040,
,,,00.000000800000,  -1.72800,
,,,00.000000820000,  -1.72720,
,,,00.000000840000,  -1.72560,
,,,00.000000860000,  -1.72400,
,,,00.000000880000,  -1.72240,
,,,00.000000900000,  -1.72080,
,,,00.000000920000,  -1.72000,
,,,00.000000940000,  -1.71840,
,,,00.000000960000,  -1.71760,
,,,00.000000980000,  -1.71680,
,,,00.000001000000,  -1.71600,
,,,00.000001020000,  -1.71520,
,,,00.000001040000,  -1.71440,
,,,00.000001060000,  -1.71440,
,,,00.000001080000,  -1.71360,
,,,00.000001100000,  -1.71360,
,,,00.000001120000,  -1.71360,
,,,00.000001140000,  -1.71360,
,,,00.000001160000,  -1.71360,
,,,00.000001180000,  -1.71360,
,,,00.000001200000,  -1.71360,
,,,00.000001220000,  -1.71440,
,,,00.000001240000,  -1.71440,
,,,00.000001260000,  -1.71440,
,,,00.000001280000,  -1.71520,
,,,00.000001300000,  -1.71600,
,,,00.000001320000,  -1.71920,
,,,00.000001340000,  -1.71760,
,,,00.000001360000,  -1.71680,
,,,00.000001380000,  -1.71760,
,,,00.000001400000,  -1.71840,
,,,00.000001420000,  -1.72000,
,,,00.000001440000,  -1.72080,
,,,00.000001460000,  -1.72160,
,,,00.000001480000,  -1.72320,
,,,00.000001500000,  -1.72400,
,,,00.000001520000,  -1.72400,
,,,00.000001540000,  -1.72560,
,,,00.000001560000,  -1.72640,
,,,00.000001580000,  -1.72720,
,,,00.000001600000,  -1.72720,
,,,00.000001620000,  -1.72720,
,,,00.000001640000,  -1.72800,
,,,00.000001660000,  -1.72800,
,,,00.000001680000,  -1.72880,
,,,00.000001700000,  -1.72880,
,,,00.000001720000,  -1.72880,
,,,00.000001740000,  -1.72960,
,,,00.000001760000,  -1.72960,
,,,00.000001780000,  -1.72960,
,,,00.000001800000,  -1.72960,
,,,00.000001820000,  -1.72960,
,,,00.000001840000,  -1.72960,
,,,00.000001860000,  -1.72960,
,,,00.000001880000,  -1.72960,
,,,00.000001900000,  -1.73040,
,,,00.000001920000,  -1.72960,
,,,00.000001940000,  -1.72960,
,,,00.000001960000,  -1.72960,
,,,00.000001980000,  -1.72960,
,,,00.000002000000,  -1.72960,
,,,00.000002020000,  -1.72960,
,,,00.000002040000,  -1.72960,
,,,00.000002060000,  -1.72880,
,,,00.000002080000,  -1.72880,
,,,00.000002100000,  -1.72880,
,,,00.000002120000,  -1.72880,
,,,00.000002140000,  -1.72880,
,,,00.000002160000,  -1.72880,
,,,00.000002180000,  -1.72880,
,,,00.000002200000,  -1.72880,
,,,00.000002220000,  -1.72880,
,,,00.000002240000,  -1.72880,
,,,00.000002260000,  -1.72880,
,,,00.000002280000,  -1.72880,
,,,00.000002300000,  -1.72960,
,,,00.000002320000,  -1.72880,
,,,00.000002340000,  -1.72960,
,,,00.000002360000,  -1.72960,
,,,00.000002380000,  -1.72960,
,,,00.000002400000,  -1.72960,
,,,00.000002420000,  -1.72960,
,,,00.000002440000,  -1.72960,
,,,00.000002460000,  -1.72960,
,,,00.000002480000,  -1.73040,
,,,00.000002500000,  -1.73040,
,,,00.000002520000,  -1.73120,
,,,00.000002540000,  -1.73120,
,,,00.000002560000,  -1.73120,
,,,00.000002580000,  -1.73120,
,,,00.000002600000,  -1.73200,
,,,00.000002620000,  -1.73200,
,,,00.000002640000,  -1.73200,
,,,00.000002660000,  -1.73200,
,,,00.000002680000,  -1.73280,
,,,00.000002700000,  -1.73280,
,,,00.000002720000,  -1.73360,
,,,00.000002740000,  -1.73360,
,,,00.000002760000,  -1.73360,
,,,00.000002780000,  -1.73360,
,,,00.000002800000,  -1.73440,
,,,00.000002820000,  -1.73360,
,,,00.000002840000,  -1.73440,
,,,00.000002860000,  -1.73440,
,,,00.000002880000,  -1.73440,
,,,00.000002900000,  -1.73440,
,,,00.000002920000,  -1.73520,
,,,00.000002940000,  -1.73520,
,,,00.000002960000,  -1.73600,
,,,00.000002980000,  -1.73520,
,,,00.000003000000,  -1.73600,
,,,00.000003020000,  -1.73600,
,,,00.000003040000,  -1.73600,
,,,00.000003060000,  -1.73600,
,,,00.000003080000,  -1.73680,
,,,00.000003100000,  -1.73680,
,,,00.000003120000,  -1.73680,
,,,00.000003140000,  -1.73680,
,,,00.000003160000,  -1.73600,
,,,00.000003180000,  -1.73680,
,,,00.000003200000,  -1.73680,
,,,00.000003220000,  -1.73680,
,,,00.000003240000,  -1.73680,
,,,00.000003260000,  -1.73680,
,,,00.000003280000,  -1.73680,
,,,00.000003300000,  -1.73680,
,,,00.000003320000,  -1.73680,
,,,00.000003340000,  -1.73600,
,,,00.000003360000,  -1.73680,
,,,00.000003380000,  -1.73680,
,,,00.000003400000,  -1.73680,
,,,00.000003420000,  -1.73680,
,,,00.000003440000,  -1.73680,
,,,00.000003460000,  -1.73680,
,,,00.000003480000,  -1.73680,
,,,00.000003500000,  -1.73680,
,,,00.000003520000,  -1.73680,
,,,00.000003540000,  -1.73680,
,,,00.000003560000,  -1.73760,
,,,00.000003580000,  -1.73760,
,,,00.000003600000,  -1.73760,
,,,00.000003620000,  -1.73760,
,,,00.000003640000,  -1.73760,
,,,00.000003660000,  -1.73760,
,,,00.000003680000,  -1.73760,
,,,00.000003700000,  -1.73760,
,,,00.000003720000,  -1.73760,
,,,00.000003740000,  -1.73840,
,,,00.000003760000,  -1.73840,
,,,00.000003780000,  -1.73840,
,,,00.000003800000,  -1.73760,
,,,00.000003820000,  -1.73840,
,,,00.000003840000,  -1.73840,
,,,00.000003860000,  -1.73920,
,,,00.000003880000,  -1.73920,
,,,00.000003900000,  -1.73920,
,,,00.000003920000,  -1.73920,
,,,00.000003940000,  -1.73920,
,,,00.000003960000,  -1.73920,
,,,00.000003980000,  -1.73920,
,,,00.000004000000,  -1.73920,
,,,00.000004020000,  -1.73920,
,,,00.000004040000,  -1.73920,
,,,00.000004060000,  -1.74000,
,,,00.000004080000,  -1.74000,
,,,00.000004100000,  -1.74000,
,,,00.000004120000,  -1.74000,
,,,00.000004140000,  -1.74000,
,,,00.000004160000,  -1.74000,
,,,00.000004180000,  -1.74000,
,,,00.000004200000,  -1.74000,
,,,00.000004220000,  -1.74000,
,,,00.000004240000,  -1.74080,
,,,00.000004260000,  -1.74000,
,,,00.000004280000,  -1.74000,
,,,00.000004300000,  -1.74080,
,,,00.000004320000,  -1.74080,
,,,00.000004340000,  -1.74080,
,,,00.000004360000,  -1.74000,
,,,00.000004380000,  -1.74080,
,,,00.000004400000,  -1.74000,
,,,00.000004420000,  -1.74080,
,,,00.000004440000,  -1.74000,
,,,00.000004460000,  -1.74080,
,,,00.000004480000,  -1.74080,
,,,00.000004500000,  -1.74080,
,,,00.000004520000,  -1.74080,
,,,00.000004540000,  -1.74080,
,,,00.000004560000,  -1.74080,
,,,00.000004580000,  -1.74000,
,,,00.000004600000,  -1.74080,
,,,00.000004620000,  -1.74080,
,,,00.000004640000,  -1.74080,
,,,00.000004660000,  -1.74080,
,,,00.000004680000,  -1.74080,
,,,00.000004700000,  -1.74080,
,,,00.000004720000,  -1.74080,
,,,00.000004740000,  -1.74080,
,,,00.000004760000,  -1.74160,
,,,00.000004780000,  -1.74080,
,,,00.000004800000,  -1.74160,
,,,00.000004820000,  -1.74160,
,,,00.000004840000,  -1.74160,
,,,00.000004860000,  -1.74160,
,,,00.000004880000,  -1.74160,
,,,00.000004900000,  -1.74080,
,,,00.000004920000,  -1.74160,
,,,00.000004940000,  -1.74160,
,,,00.000004960000,  -1.74160,
,,,00.000004980000,  -1.74160,
,,,00.000005000000,  -1.74160,
,,,00.000005020000,  -1.74160,
,,,00.000005040000,  -1.74160,
,,,00.000005060000,  -1.74160,
,,,00.000005080000,  -1.74240,
,,,00.000005100000,  -1.74160,
,,,00.000005120000,  -1.74240,
,,,00.000005140000,  -1.74240,
,,,00.000005160000,  -1.74240,
,,,00.000005180000,  -1.74240,
,,,00.000005200000,  -1.74320,
,,,00.000005220000,  -1.74240,
,,,00.000005240000,  -1.74240,
,,,00.000005260000,  -1.74240,
,,,00.000005280000,  -1.74240,
,,,00.000005300000,  -1.74320,
,,,00.000005320000,  -1.74240,
,,,00.000005340000,  -1.74320,
,,,00.000005360000,  -1.74320,
,,,00.000005380000,  -1.74240,
,,,00.000005400000,  -1.74320,
,,,00.000005420000,  -1.74320,
,,,00.000005440000,  -1.74320,
,,,00.000005460000,  -1.74320,
,,,00.000005480000,  -1.74320,
,,,00.000005500000,  -1.74320,
,,,00.000005520000,  -1.74320,
,,,00.000005540000,  -1.74320,
,,,00.000005560000,  -1.74320,
,,,00.000005580000,  -1.74320,
,,,00.000005600000,  -1.74320,
,,,00.000005620000,  -1.74320,
,,,00.000005640000,  -1.74320,
,,,00.000005660000,  -1.74320,
,,,00.000005680000,  -1.74320,
,,,00.000005700000,  -1.74320,
,,,00.000005720000,  -1.74240,
,,,00.000005740000,  -1.74240,
,,,00.000005760000,  -1.74240,
,,,00.000005780000,  -1.74320,
,,,00.000005800000,  -1.74320,
,,,00.000005820000,  -1.74320,
,,,00.000005840000,  -1.74240,
,,,00.000005860000,  -1.74240,
,,,00.000005880000,  -1.74240,
,,,00.000005900000,  -1.74320,
,,,00.000005920000,  -1.74320,
,,,00.000005940000,  -1.74320,
,,,00.000005960000,  -1.74320,
,,,00.000005980000,  -1.74320,
,,,00.000006000000,  -1.74320,
,,,00.000006020000,  -1.74320,
,,,00.000006040000,  -1.74320,
,,,00.000006060000,  -1.74320,
,,,00.000006080000,  -1.74320,
,,,00.000006100000,  -1.74400,
,,,00.000006120000,  -1.74320,
,,,00.000006140000,  -1.74320,
,,,00.000006160000,  -1.74320,
,,,00.000006180000,  -1.74320,
,,,00.000006200000,  -1.74400,
,,,00.000006220000,  -1.74320,
,,,00.000006240000,  -1.74400,
,,,00.000006260000,  -1.74400,
,,,00.000006280000,  -1.74400,
,,,00.000006300000,  -1.74400,
,,,00.000006320000,  -1.74400,
,,,00.000006340000,  -1.74400,
,,,00.000006360000,  -1.74400,
,,,00.000006380000,  -1.74480,
,,,00.000006400000,  -1.74400,
,,,00.000006420000,  -1.74400,
,,,00.000006440000,  -1.74480,
,,,00.000006460000,  -1.74480,
,,,00.000006480000,  -1.74400,
,,,00.000006500000,  -1.74480,
,,,00.000006520000,  -1.74480,
,,,00.000006540000,  -1.74400,
,,,00.000006560000,  -1.74480,
,,,00.000006580000,  -1.74560,
,,,00.000006600000,  -1.74560,
,,,00.000006620000,  -1.74560,
,,,00.000006640000,  -1.74640,
,,,00.000006660000,  -1.74640,
,,,00.000006680000,  -1.74560,
,,,00.000006700000,  -1.74560,
,,,00.000006720000,  -1.74480,
,,,00.000006740000,  -1.74480,
,,,00.000006760000,  -1.74480,
,,,00.000006780000,  -1.74560,
,,,00.000006800000,  -1.74480,
,,,00.000006820000,  -1.74560,
,,,00.000006840000,  -1.74560,
,,,00.000006860000,  -1.74560,
,,,00.000006880000,  -1.74560,
,,,00.000006900000,  -1.74560,
,,,00.000006920000,  -1.74640,
,,,00.000006940000,  -1.74640,
,,,00.000006960000,  -1.74720,
,,,00.000006980000,  -1.74640,
,,,00.000007000000,  -1.74720,
,,,00.000007020000,  -1.74720,
,,,00.000007040000,  -1.74720,
,,,00.000007060000,  -1.74720,
,,,00.000007080000,  -1.74720,
,,,00.000007100000,  -1.74720,
,,,00.000007120000,  -1.74720,
,,,00.000007140000,  -1.74720,
,,,00.000007160000,  -1.74720,
,,,00.000007180000,  -1.74720,
,,,00.000007200000,  -1.74720,
,,,00.000007220000,  -1.74720,
,,,00.000007240000,  -1.74720,
,,,00.000007260000,  -1.74720,
,,,00.000007280000,  -1.74720,
,,,00.000007300000,  -1.74720,
,,,00.000007320000,  -1.74720,
,,,00.000007340000,  -1.74720,
,,,00.000007360000,  -1.74720,
,,,00.000007380000,  -1.74720,
,,,00.000007400000,  -1.74720,
,,,00.000007420000,  -1.74640,
,,,00.000007440000,  -1.74640,
,,,00.000007460000,  -1.74640,
,,,00.000007480000,  -1.74640,
,,,00.000007500000,  -1.74640,
