Uncertainties/29V/set6.CSV

Record Length,2.500000e+03,,  -0.000005000000,  -4.50200,
Sample Interval,2.000000e-08,,  -0.000004980000,  -4.50200,
Trigger Point,2.500000000000e+02,,  -0.000004960000,  -4.50200,
,,,  -0.000004940000,  -4.50200,
,,,  -0.000004920000,  -4.50200,
,,,  -0.000004900000,  -4.50200,
Source,CH1,,  -0.000004880000,  -4.50200,
Vertical Units,V,,  -0.000004860000,  -4.50200,
Vertical Scale,5.000000e-02,,  -0.000004840000,  -4.50200,
Vertical Offset,4.470000e+00,,  -0.000004820000,  -4.50200,
Horizontal Units,s,,  -0.000004800000,  -4.50200,
Horizontal Scale,5.000000e-06,,  -0.000004780000,  -4.50200,
Pt Fmt,Y,,  -0.000004760000,  -4.50200,
Yzero,0.000000e+00,,  -0.000004740000,  -4.50200,
Probe Atten,1.000000e+01,,  -0.000004720000,  -4.50200,
Model Number,TBS1052B,,  -0.000004700000,  -4.50200,
Serial Number,C031782,,  -0.000004680000,  -4.50200,
Firmware Version,FV:v4.06,,  -0.000004660000,  -4.50200,
,,,-00.000004640000,  -4.50200,
,,,-00.000004620000,  -4.50200,
,,,-00.000004600000,  -4.50200,
,,,-00.000004580000,  -4.50000,
,,,-00.000004560000,  -4.50000,
,,,-00.000004540000,  -4.50000,
,,,-00.000004520000,  -4.50000,
,,,-00.000004500000,  -4.50000,
,,,-00.000004480000,  -4.50000,
,,,-00.000004460000,  -4.50000,
,,,-00.000004440000,  -4.50000,
,,,-00.000004420000,  -4.50000,
,,,-00.000004400000,  -4.50000,
,,,-00.000004380000,  -4.50000,
,,,-00.000004360000,  -4.50000,
,,,-00.000004340000,  -4.50000,
,,,-00.000004320000,  -4.50000,
,,,-00.000004300000,  -4.50000,
,,,-00.000004280000,  -4.50000,
,,,-00.000004260000,  -4.50000,
,,,-00.000004240000,  -4.50000,
,,,-00.000004220000,  -4.50000,
,,,-00.000004200000,  -4.50000,
,,,-00.000004180000,  -4.50000,
,,,-00.000004160000,  -4.50000,
,,,-00.000004140000,  -4.50000,
,,,-00.000004120000,  -4.50000,
,,,-00.000004100000,  -4.50000,
,,,-00.000004080000,  -4.50000,
,,,-00.000004060000,  -4.50000,
,,,-00.000004040000,  -4.50000,
,,,-00.000004020000,  -4.50000,
,,,-00.000004000000,  -4.50000,
,,,-00.000003980000,  -4.50000,
,,,-00.000003960000,  -4.50000,
,,,-00.000003940000,  -4.50000,
,,,-00.000003920000,  -4.50000,
,,,-00.000003900000,  -4.50000,
,,,-00.000003880000,  -4.50000,
,,,-00.000003860000,  -4.50000,
,,,-00.000003840000,  -4.50000,
,,,-00.000003820000,  -4.50000,
,,,-00.000003800000,  -4.50000,
,,,-00.000003780000,  -4.50000,
,,,-00.000003760000,  -4.50000,
,,,-00.000003740000,  -4.50000,
,,,-00.000003720000,  -4.50000,
,,,-00.000003700000,  -4.50000,
,,,-00.000003680000,  -4.50000,
,,,-00.000003660000,  -4.50000,
,,,-00.000003640000,  -4.50000,
,,,-00.000003620000,  -4.50000,
,,,-00.000003600000,  -4.50200,
,,,-00.000003580000,  -4.50000,
,,,-00.000003560000,  -4.50000,
,,,-00.000003540000,  -4.50000,
,,,-00.000003520000,  -4.50000,
,,,-00.000003500000,  -4.50000,
,,,-00.000003480000,  -4.50000,
,,,-00.000003460000,  -4.50000,
,,,-00.000003440000,  -4.50200,
,,,-00.000003420000,  -4.50200,
,,,-00.000003400000,  -4.50200,
,,,-00.000003380000,  -4.50000,
,,,-00.000003360000,  -4.50000,
,,,-00.000003340000,  -4.50000,
,,,-00.000003320000,  -4.50000,
,,,-00.000003300000,  -4.50200,
,,,-00.000003280000,  -4.50200,
,,,-00.000003260000,  -4.50000,
,,,-00.000003240000,  -4.50000,
,,,-00.000003220000,  -4.50000,
,,,-00.000003200000,  -4.50000,
,,,-00.000003180000,  -4.50000,
,,,-00.000003160000,  -4.50200,
,,,-00.000003140000,  -4.50200,
,,,-00.000003120000,  -4.50200,
,,,-00.000003100000,  -4.50000,
,,,-00.000003080000,  -4.50000,
,,,-00.000003060000,  -4.50200,
,,,-00.000003040000,  -4.50200,
,,,-00.000003020000,  -4.50000,
,,,-00.000003000000,  -4.50200,
,,,-00.000002980000,  -4.50200,
,,,-00.000002960000,  -4.50200,
,,,-00.000002940000,  -4.50200,
,,,-00.000002920000,  -4.50200,
,,,-00.000002900000,  -4.50200,
,,,-00.000002880000,  -4.50200,
,,,-00.000002860000,  -4.50200,
,,,-00.000002840000,  -4.50200,
,,,-00.000002820000,  -4.50200,
,,,-00.000002800000,  -4.50200,
,,,-00.000002780000,  -4.50200,
,,,-00.000002760000,  -4.50200,
,,,-00.000002740000,  -4.50000,
,,,-00.000002720000,  -4.50200,
,,,-00.000002700000,  -4.50200,
,,,-00.000002680000,  -4.50200,
,,,-00.000002660000,  -4.50000,
,,,-00.000002640000,  -4.50200,
,,,-00.000002620000,  -4.50200,
,,,-00.000002600000,  -4.50200,
,,,-00.000002580000,  -4.50200,
,,,-00.000002560000,  -4.50200,
,,,-00.000002540000,  -4.50000,
,,,-00.000002520000,  -4.50200,
,,,-00.000002500000,  -4.50200,
,,,-00.000002480000,  -4.50200,
,,,-00.000002460000,  -4.50200,
,,,-00.000002440000,  -4.50000,
,,,-00.000002420000,  -4.50200,
,,,-00.000002400000,  -4.50000,
,,,-00.000002380000,  -4.50200,
,,,-00.000002360000,  -4.50200,
,,,-00.000002340000,  -4.50200,
,,,-00.000002320000,  -4.50200,
,,,-00.000002300000,  -4.50200,
,,,-00.000002280000,  -4.50200,
,,,-00.000002260000,  -4.50200,
,,,-00.000002240000,  -4.50200,
,,,-00.000002220000,  -4.50200,
,,,-00.000002200000,  -4.50200,
,,,-00.000002180000,  -4.50200,
,,,-00.000002160000,  -4.50200,
,,,-00.000002140000,  -4.50200,
,,,-00.000002120000,  -4.50200,
,,,-00.000002100000,  -4.50200,
,,,-00.000002080000,  -4.50200,
,,,-00.000002060000,  -4.50200,
,,,-00.000002040000,  -4.50000,
,,,-00.000002020000,  -4.50200,
,,,-00.000002000000,  -4.50200,
,,,-00.000001980000,  -4.50200,
,,,-00.000001960000,  -4.50000,
,,,-00.000001940000,  -4.50200,
,,,-00.000001920000,  -4.50000,
,,,-00.000001900000,  -4.50200,
,,,-00.000001880000,  -4.50200,
,,,-00.000001860000,  -4.50200,
,,,-00.000001840000,  -4.50200,
,,,-00.000001820000,  -4.50000,
,,,-00.000001800000,  -4.50200,
,,,-00.000001780000,  -4.50200,
,,,-00.000001760000,  -4.50000,
,,,-00.000001740000,  -4.50000,
,,,-00.000001720000,  -4.50000,
,,,-00.000001700000,  -4.50200,
,,,-00.000001680000,  -4.50000,
,,,-00.000001660000,  -4.50000,
,,,-00.000001640000,  -4.50200,
,,,-00.000001620000,  -4.50200,
,,,-00.000001600000,  -4.50000,
,,,-00.000001580000,  -4.50200,
,,,-00.000001560000,  -4.50200,
,,,-00.000001540000,  -4.50200,
,,,-00.000001520000,  -4.50200,
,,,-00.000001500000,  -4.50200,
,,,-00.000001480000,  -4.50200,
,,,-00.000001460000,  -4.50200,
,,,-00.000001440000,  -4.50200,
,,,-00.000001420000,  -4.50200,
,,,-00.000001400000,  -4.50200,
,,,-00.000001380000,  -4.50200,
,,,-00.000001360000,  -4.50200,
,,,-00.000001340000,  -4.50200,
,,,-00.000001320000,  -4.50200,
,,,-00.000001300000,  -4.50200,
,,,-00.000001280000,  -4.50200,
,,,-00.000001260000,  -4.50200,
,,,-00.000001240000,  -4.50000,
,,,-00.000001220000,  -4.50200,
,,,-00.000001200000,  -4.50000,
,,,-00.000001180000,  -4.50000,
,,,-00.000001160000,  -4.50000,
,,,-00.000001140000,  -4.50000,
,,,-00.000001120000,  -4.50000,
,,,-00.000001100000,  -4.50200,
,,,-00.000001080000,  -4.50000,
,,,-00.000001060000,  -4.50200,
,,,-00.000001040000,  -4.50000,
,,,-00.000001020000,  -4.50000,
,,,-00.000001000000,  -4.50000,
,,,-00.000000980000,  -4.50000,
,,,-00.000000960000,  -4.50000,
,,,-00.000000940000,  -4.50000,
,,,-00.000000920000,  -4.50000,
,,,-00.000000900000,  -4.50000,
,,,-00.000000880000,  -4.50000,
,,,-00.000000860000,  -4.50000,
,,,-00.000000840000,  -4.50000,
,,,-00.000000820000,  -4.50000,
,,,-00.000000800000,  -4.50000,
,,,-00.000000780000,  -4.50000,
,,,-00.000000760000,  -4.50000,
,,,-00.000000740000,  -4.50000,
,,,-00.000000720000,  -4.50000,
,,,-00.000000700000,  -4.50000,
,,,-00.000000680000,  -4.50000,
,,,-00.000000660000,  -4.50000,
,,,-00.000000640000,  -4.50000,
,,,-00.000000620000,  -4.50000,
,,,-00.000000600000,  -4.50000,
,,,-00.000000580000,  -4.50000,
,,,-00.000000560000,  -4.50000,
,,,-00.000000540000,  -4.50000,
,,,-00.000000520000,  -4.50000,
,,,-00.000000500000,  -4.50000,
,,,-00.000000480000,  -4.50000,
,,,-00.000000460000,  -4.50000,
,,,-00.000000440000,  -4.50000,
,,,-00.000000420000,  -4.50000,
,,,-00.000000400000,  -4.50000,
,,,-00.000000380000,  -4.50000,
,,,-00.000000360000,  -4.50000,
,,,-00.000000340000,  -4.50000,
,,,-00.000000320000,  -4.50000,
,,,-00.000000300000,  -4.50000,
,,,-00.000000280000,  -4.49800,
,,,-00.000000260000,  -4.50000,
,,,-00.000000240000,  -4.50000,
,,,-00.000000220000,  -4.50000,
,,,-00.000000200000,  -4.50000,
,,,-00.000000180000,  -4.50000,
,,,-00.000000160000,  -4.50000,
,,,-00.000000140000,  -4.49800,
,,,-00.000000120000,  -4.50000,
,,,-00.000000100000,  -4.49800,
,,,-00.000000080000,  -4.50000,
,,,-00.000000060000,  -4.50000,
,,,-00.000000040000,  -4.49800,
,,,-00.000000020000,  -4.49800,
,,,-00.000000000000,  -4.50000,
,,,00.000000020000,  -4.50000,
,,,00.000000040000,  -4.50000,
,,,00.000000060000,  -4.50000,
,,,00.000000080000,  -4.49800,
,,,00.000000100000,  -4.49200,
,,,00.000000120000,  -4.51000,
,,,00.000000140000,  -4.48800,
,,,00.000000160000,  -4.49800,
,,,00.000000180000,  -4.49600,
,,,00.000000200000,  -4.50200,
,,,00.000000220000,  -4.49600,
,,,00.000000240000,  -4.50000,
,,,00.000000260000,  -4.49600,
,,,00.000000280000,  -4.50000,
,,,00.000000300000,  -4.49800,
,,,00.000000320000,  -4.49800,
,,,00.000000340000,  -4.49600,
,,,00.000000360000,  -4.49600,
,,,00.000000380000,  -4.49600,
,,,00.000000400000,  -4.49400,
,,,00.000000420000,  -4.49400,
,,,00.000000440000,  -4.49400,
,,,00.000000460000,  -4.49200,
,,,00.000000480000,  -4.49000,
,,,00.000000500000,  -4.48800,
,,,00.000000520000,  -4.48600,
,,,00.000000540000,  -4.48400,
,,,00.000000560000,  -4.48200,
,,,00.000000580000,  -4.48200,
,,,00.000000600000,  -4.47800,
,,,00.000000620000,  -4.47600,
,,,00.000000640000,  -4.47400,
,,,00.000000660000,  -4.47200,
,,,00.000000680000,  -4.47000,
,,,00.000000700000,  -4.46800,
,,,00.000000720000,  -4.46400,
,,,00.000000740000,  -4.46200,
,,,00.000000760000,  -4.46200,
,,,00.000000780000,  -4.45800,
,,,00.000000800000,  -4.45600,
,,,00.000000820000,  -4.45400,
,,,00.000000840000,  -4.45200,
,,,00.000000860000,  -4.45000,
,,,00.000000880000,  -4.45000,
,,,00.000000900000,  -4.44800,
,,,00.000000920000,  -4.44600,
,,,00.000000940000,  -4.44400,
,,,00.000000960000,  -4.44200,
,,,00.000000980000,  -4.44200,
,,,00.000001000000,  -4.44200,
,,,00.000001020000,  -4.44000,
,,,00.000001040000,  -4.44000,
,,,00.000001060000,  -4.44000,
,,,00.000001080000,  -4.44000,
,,,00.000001100000,  -4.43800,
,,,00.000001120000,  -4.43600,
,,,00.000001140000,  -4.43800,
,,,00.000001160000,  -4.43800,
,,,00.000001180000,  -4.43800,
,,,00.000001200000,  -4.44000,
,,,00.000001220000,  -4.44000,
,,,00.000001240000,  -4.44000,
,,,00.000001260000,  -4.44200,
,,,00.000001280000,  -4.44200,
,,,00.000001300000,  -4.44200,
,,,00.000001320000,  -4.44200,
,,,00.000001340000,  -4.44400,
,,,00.000001360000,  -4.44400,
,,,00.000001380000,  -4.44400,
,,,00.000001400000,  -4.44600,
,,,00.000001420000,  -4.44600,
,,,00.000001440000,  -4.44600,
,,,00.000001460000,  -4.44800,
,,,00.000001480000,  -4.44800,
,,,00.000001500000,  -4.44800,
,,,00.000001520000,  -4.44800,
,,,00.000001540000,  -4.45000,
,,,00.000001560000,  -4.45000,
,,,00.000001580000,  -4.45000,
,,,00.000001600000,  -4.45200,
,,,00.000001620000,  -4.45200,
,,,00.000001640000,  -4.45200,
,,,00.000001660000,  -4.45200,
,,,00.000001680000,  -4.45200,
,,,00.000001700000,  -4.45200,
,,,00.000001720000,  -4.45400,
,,,00.000001740000,  -4.45400,
,,,00.000001760000,  -4.45400,
,,,00.000001780000,  -4.45400,
,,,00.000001800000,  -4.45400,
,,,00.000001820000,  -4.45400,
,,,00.000001840000,  -4.45400,
,,,00.000001860000,  -4.45400,
,,,00.000001880000,  -4.45400,
,,,00.000001900000,  -4.45400,
,,,00.000001920000,  -4.45400,
,,,00.000001940000,  -4.45400,
,,,00.000001960000,  -4.45400,
,,,00.000001980000,  -4.45400,
,,,00.000002000000,  -4.45400,
,,,00.000002020000,  -4.45400,
,,,00.000002040000,  -4.45400,
,,,00.000002060000,  -4.45400,
,,,00.000002080000,  -4.45400,
,,,00.000002100000,  -4.45400,
,,,00.000002120000,  -4.45400,
,,,00.000002140000,  -4.45400,
,,,00.000002160000,  -4.45200,
,,,00.000002180000,  -4.45400,
,,,00.000002200000,  -4.45400,
,,,00.000002220000,  -4.45400,
,,,00.000002240000,  -4.45400,
,,,00.000002260000,  -4.45400,
,,,00.000002280000,  -4.45400,
,,,00.000002300000,  -4.45400,
,,,00.000002320000,  -4.45200,
,,,00.000002340000,  -4.45200,
,,,00.000002360000,  -4.45400,
,,,00.000002380000,  -4.45400,
,,,00.000002400000,  -4.45400,
,,,00.000002420000,  -4.45400,
,,,00.000002440000,  -4.45400,
,,,00.000002460000,  -4.45400,
,,,00.000002480000,  -4.45400,
,,,00.000002500000,  -4.45600,
,,,00.000002520000,  -4.45600,
,,,00.000002540000,  -4.45600,
,,,00.000002560000,  -4.45600,
,,,00.000002580000,  -4.45600,
,,,00.000002600000,  -4.45600,
,,,00.000002620000,  -4.45600,
,,,00.000002640000,  -4.45600,
,,,00.000002660000,  -4.45800,
,,,00.000002680000,  -4.45800,
,,,00.000002700000,  -4.45800,
,,,00.000002720000,  -4.45800,
,,,00.000002740000,  -4.45800,
,,,00.000002760000,  -4.45800,
,,,00.000002780000,  -4.46000,
,,,00.000002800000,  -4.45800,
,,,00.000002820000,  -4.46000,
,,,00.000002840000,  -4.46000,
,,,00.000002860000,  -4.46000,
,,,00.000002880000,  -4.46000,
,,,00.000002900000,  -4.46000,
,,,00.000002920000,  -4.46000,
,,,00.000002940000,  -4.46000,
,,,00.000002960000,  -4.46000,
,,,00.000002980000,  -4.46200,
,,,00.000003000000,  -4.46200,
,,,00.000003020000,  -4.46200,
,,,00.000003040000,  -4.46200,
,,,00.000003060000,  -4.46200,
,,,00.000003080000,  -4.46200,
,,,00.000003100000,  -4.46200,
,,,00.000003120000,  -4.46200,
,,,00.000003140000,  -4.46200,
,,,00.000003160000,  -4.46400,
,,,00.000003180000,  -4.46200,
,,,00.000003200000,  -4.46200,
,,,00.000003220000,  -4.46200,
,,,00.000003240000,  -4.46400,
,,,00.000003260000,  -4.46200,
,,,00.000003280000,  -4.46200,
,,,00.000003300000,  -4.46200,
,,,00.000003320000,  -4.46400,
,,,00.000003340000,  -4.46400,
,,,00.000003360000,  -4.46400,
,,,00.000003380000,  -4.46400,
,,,00.000003400000,  -4.46400,
,,,00.000003420000,  -4.46400,
,,,00.000003440000,  -4.46400,
,,,00.000003460000,  -4.46400,
,,,00.000003480000,  -4.46400,
,,,00.000003500000,  -4.46400,
,,,00.000003520000,  -4.46400,
,,,00.000003540000,  -4.46400,
,,,00.000003560000,  -4.46400,
,,,00.000003580000,  -4.46400,
,,,00.000003600000,  -4.46400,
,,,00.000003620000,  -4.46400,
,,,00.000003640000,  -4.46400,
,,,00.000003660000,  -4.46400,
,,,00.000003680000,  -4.46400,
,,,00.000003700000,  -4.46400,
,,,00.000003720000,  -4.46400,
,,,00.000003740000,  -4.46400,
,,,00.000003760000,  -4.46400,
,,,00.000003780000,  -4.46400,
,,,00.000003800000,  -4.46400,
,,,00.000003820000,  -4.46400,
,,,00.000003840000,  -4.46400,
,,,00.000003860000,  -4.46400,
,,,00.000003880000,  -4.46400,
,,,00.000003900000,  -4.46400,
,,,00.000003920000,  -4.46400,
,,,00.000003940000,  -4.46400,
,,,00.000003960000,  -4.46600,
,,,00.000003980000,  -4.46600,
,,,00.000004000000,  -4.46600,
,,,00.000004020000,  -4.46600,
,,,00.000004040000,  -4.46600,
,,,00.000004060000,  -4.46600,
,,,00.000004080000,  -4.46400,
,,,00.000004100000,  -4.46600,
,,,00.000004120000,  -4.46600,
,,,00.000004140000,  -4.46600,
,,,00.000004160000,  -4.46600,
,,,00.000004180000,  -4.46600,
,,,00.000004200000,  -4.46600,
,,,00.000004220000,  -4.46600,
,,,00.000004240000,  -4.46600,
,,,00.000004260000,  -4.46600,
,,,00.000004280000,  -4.46600,
,,,00.000004300000,  -4.46600,
,,,00.000004320000,  -4.46600,
,,,00.000004340000,  -4.46600,
,,,00.000004360000,  -4.46600,
,,,00.000004380000,  -4.46600,
,,,00.000004400000,  -4.46600,
,,,00.000004420000,  -4.46600,
,,,00.000004440000,  -4.46600,
,,,00.000004460000,  -4.46600,
,,,00.000004480000,  -4.46600,
,,,00.000004500000,  -4.46600,
,,,00.000004520000,  -4.46600,
,,,00.000004540000,  -4.46600,
,,,00.000004560000,  -4.46600,
,,,00.000004580000,  -4.46600,
,,,00.000004600000,  -4.46600,
,,,00.000004620000,  -4.46600,
,,,00.000004640000,  -4.46600,
,,,00.000004660000,  -4.46600,
,,,00.000004680000,  -4.46600,
,,,00.000004700000,  -4.46600,
,,,00.000004720000,  -4.46600,
,,,00.000004740000,  -4.46600,
,,,00.000004760000,  -4.46600,
,,,00.000004780000,  -4.46600,
,,,00.000004800000,  -4.46600,
,,,00.000004820000,  -4.46600,
,,,00.000004840000,  -4.46800,
,,,00.000004860000,  -4.46800,
,,,00.000004880000,  -4.46600,
,,,00.000004900000,  -4.46600,
,,,00.000004920000,  -4.46600,
,,,00.000004940000,  -4.46800,
,,,00.000004960000,  -4.46800,
,,,00.000004980000,  -4.46800,
,,,00.000005000000,  -4.46800,
,,,00.000005020000,  -4.46800,
,,,00.000005040000,  -4.46800,
,,,00.000005060000,  -4.46800,
,,,00.000005080000,  -4.46800,
,,,00.000005100000,  -4.46800,
,,,00.000005120000,  -4.46800,
,,,00.000005140000,  -4.46800,
,,,00.000005160000,  -4.46800,
,,,00.000005180000,  -4.46800,
,,,00.000005200000,  -4.46800,
,,,00.000005220000,  -4.46800,
,,,00.000005240000,  -4.46800,
,,,00.000005260000,  -4.46800,
,,,00.000005280000,  -4.46800,
,,,00.000005300000,  -4.46800,
,,,00.000005320000,  -4.46800,
,,,00.000005340000,  -4.46800,
,,,00.000005360000,  -4.46800,
,,,00.000005380000,  -4.46800,
,,,00.000005400000,  -4.46800,
,,,00.000005420000,  -4.46800,
,,,00.000005440000,  -4.46800,
,,,00.000005460000,  -4.46800,
,,,00.000005480000,  -4.46800,
,,,00.000005500000,  -4.46800,
,,,00.000005520000,  -4.46800,
,,,00.000005540000,  -4.46800,
,,,00.000005560000,  -4.46800,
,,,00.000005580000,  -4.46800,
,,,00.000005600000,  -4.46800,
,,,00.000005620000,  -4.46800,
,,,00.000005640000,  -4.46800,
,,,00.000005660000,  -4.46800,
,,,00.000005680000,  -4.46800,
,,,00.000005700000,  -4.46800,
,,,00.000005720000,  -4.46800,
,,,00.000005740000,  -4.46800,
,,,00.000005760000,  -4.46800,
,,,00.000005780000,  -4.46800,
,,,00.000005800000,  -4.46800,
,,,00.000005820000,  -4.46600,
,,,00.000005840000,  -4.46800,
,,,00.000005860000,  -4.46800,
,,,00.000005880000,  -4.46600,
,,,00.000005900000,  -4.46800,
,,,00.000005920000,  -4.46800,
,,,00.000005940000,  -4.46600,
,,,00.000005960000,  -4.46800,
,,,00.000005980000,  -4.46600,
,,,00.000006000000,  -4.46600,
,,,00.000006020000,  -4.46800,
,,,00.000006040000,  -4.46600,
,,,00.000006060000,  -4.46600,
,,,00.000006080000,  -4.46600,
,,,00.000006100000,  -4.46600,
,,,00.000006120000,  -4.46800,
,,,00.000006140000,  -4.46800,
,,,00.000006160000,  -4.46800,
,,,00.000006180000,  -4.46600,
,,,00.000006200000,  -4.46600,
,,,00.000006220000,  -4.46600,
,,,00.000006240000,  -4.46600,
,,,00.000006260000,  -4.46600,
,,,00.000006280000,  -4.46800,
,,,00.000006300000,  -4.46800,
,,,00.000006320000,  -4.46800,
,,,00.000006340000,  -4.46800,
,,,00.000006360000,  -4.46800,
,,,00.000006380000,  -4.46800,
,,,00.000006400000,  -4.46800,
,,,00.000006420000,  -4.46600,
,,,00.000006440000,  -4.46800,
,,,00.000006460000,  -4.46800,
,,,00.000006480000,  -4.46800,
,,,00.000006500000,  -4.46600,
,,,00.000006520000,  -4.46800,
,,,00.000006540000,  -4.46800,
,,,00.000006560000,  -4.46800,
,,,00.000006580000,  -4.46800,
,,,00.000006600000,  -4.46800,
,,,00.000006620000,  -4.46800,
,,,00.000006640000,  -4.46800,
,,,00.000006660000,  -4.46800,
,,,00.000006680000,  -4.46800,
,,,00.000006700000,  -4.46800,
,,,00.000006720000,  -4.46800,
,,,00.000006740000,  -4.46800,
,,,00.000006760000,  -4.46800,
,,,00.000006780000,  -4.46800,
,,,00.000006800000,  -4.46800,
,,,00.000006820000,  -4.47000,
,,,00.000006840000,  -4.46800,
,,,00.000006860000,  -4.46800,
,,,00.000006880000,  -4.46800,
,,,00.000006900000,  -4.46800,
,,,00.000006920000,  -4.46800,
,,,00.000006940000,  -4.46800,
,,,00.000006960000,  -4.46800,
,,,00.000006980000,  -4.46800,
,,,00.000007000000,  -4.46800,
,,,00.000007020000,  -4.46800,
,,,00.000007040000,  -4.46800,
,,,00.000007060000,  -4.46800,
,,,00.000007080000,  -4.46800,
,,,00.000007100000,  -4.46800,
,,,00.000007120000,  -4.46800,
,,,00.000007140000,  -4.46800,
,,,00.000007160000,  -4.46800,
,,,00.000007180000,  -4.46800,
,,,00.000007200000,  -4.46600,
,,,00.000007220000,  -4.46600,
,,,00.000007240000,  -4.46600,
,,,00.000007260000,  -4.46600,
,,,00.000007280000,  -4.46600,
,,,00.000007300000,  -4.46600,
,,,00.000007320000,  -4.46600,
,,,00.000007340000,  -4.46600,
,,,00.000007360000,  -4.46600,
,,,00.000007380000,  -4.46600,
,,,00.000007400000,  -4.46600,
,,,00.000007420000,  -4.46600,
,,,00.000007440000,  -4.46600,
,,,00.000007460000,  -4.46600,
,,,00.000007480000,  -4.46600,
,,,00.000007500000,  -4.46600,
