Data 4/5.1mm.CSV

Record Length,2.500000e+03,,  -0.000030000000,  -1.83360,
Sample Interval,4.000000e-08,,  -0.000029960000,  -1.83360,
Trigger Point,7.500000000000e+02,,  -0.000029920000,  -1.83360,
,,,  -0.000029880000,  -1.83440,
,,,  -0.000029840000,  -1.83440,
,,,  -0.000029800000,  -1.83440,
Source,CH1,,  -0.000029760000,  -1.83440,
Vertical Units,V,,  -0.000029720000,  -1.83440,
Vertical Scale,2.000000e-02,,  -0.000029680000,  -1.83360,
Vertical Offset,1.821600e+00,,  -0.000029640000,  -1.83440,
Horizontal Units,s,,  -0.000029600000,  -1.83440,
Horizontal Scale,1.000000e-05,,  -0.000029560000,  -1.83360,
Pt Fmt,Y,,  -0.000029520000,  -1.83360,
Yzero,0.000000e+00,,  -0.000029480000,  -1.83360,
Probe Atten,1.000000e+01,,  -0.000029440000,  -1.83440,
Model Number,TBS1052B,,  -0.000029400000,  -1.83360,
Serial Number,C031782,,  -0.000029360000,  -1.83360,
Firmware Version,FV:v4.06,,  -0.000029320000,  -1.83360,
,,,-00.000029280000,  -1.83360,
,,,-00.000029240000,  -1.83360,
,,,-00.000029200000,  -1.83360,
,,,-00.000029160000,  -1.83360,
,,,-00.000029120000,  -1.83360,
,,,-00.000029080000,  -1.83360,
,,,-00.000029040000,  -1.83360,
,,,-00.000029000000,  -1.83360,
,,,-00.000028960000,  -1.83360,
,,,-00.000028920000,  -1.83280,
,,,-00.000028880000,  -1.83360,
,,,-00.000028840000,  -1.83360,
,,,-00.000028800000,  -1.83360,
,,,-00.000028760000,  -1.83280,
,,,-00.000028720000,  -1.83360,
,,,-00.000028680000,  -1.83360,
,,,-00.000028640000,  -1.83360,
,,,-00.000028600000,  -1.83360,
,,,-00.000028560000,  -1.83360,
,,,-00.000028520000,  -1.83360,
,,,-00.000028480000,  -1.83360,
,,,-00.000028440000,  -1.83360,
,,,-00.000028400000,  -1.83360,
,,,-00.000028360000,  -1.83360,
,,,-00.000028320000,  -1.83440,
,,,-00.000028280000,  -1.83360,
,,,-00.000028240000,  -1.83360,
,,,-00.000028200000,  -1.83360,
,,,-00.000028160000,  -1.83360,
,,,-00.000028120000,  -1.83360,
,,,-00.000028080000,  -1.83360,
,,,-00.000028040000,  -1.83360,
,,,-00.000028000000,  -1.83360,
,,,-00.000027960000,  -1.83360,
,,,-00.000027920000,  -1.83360,
,,,-00.000027880000,  -1.83360,
,,,-00.000027840000,  -1.83360,
,,,-00.000027800000,  -1.83360,
,,,-00.000027760000,  -1.83280,
,,,-00.000027720000,  -1.83280,
,,,-00.000027680000,  -1.83280,
,,,-00.000027640000,  -1.83280,
,,,-00.000027600000,  -1.83360,
,,,-00.000027560000,  -1.83280,
,,,-00.000027520000,  -1.83360,
,,,-00.000027480000,  -1.83360,
,,,-00.000027440000,  -1.83360,
,,,-00.000027400000,  -1.83360,
,,,-00.000027360000,  -1.83360,
,,,-00.000027320000,  -1.83360,
,,,-00.000027280000,  -1.83360,
,,,-00.000027240000,  -1.83360,
,,,-00.000027200000,  -1.83360,
,,,-00.000027160000,  -1.83360,
,,,-00.000027120000,  -1.83280,
,,,-00.000027080000,  -1.83360,
,,,-00.000027040000,  -1.83440,
,,,-00.000027000000,  -1.83440,
,,,-00.000026960000,  -1.83360,
,,,-00.000026920000,  -1.83360,
,,,-00.000026880000,  -1.83360,
,,,-00.000026840000,  -1.83360,
,,,-00.000026800000,  -1.83360,
,,,-00.000026760000,  -1.83360,
,,,-00.000026720000,  -1.83440,
,,,-00.000026680000,  -1.83440,
,,,-00.000026640000,  -1.83440,
,,,-00.000026600000,  -1.83440,
,,,-00.000026560000,  -1.83520,
,,,-00.000026520000,  -1.83520,
,,,-00.000026480000,  -1.83440,
,,,-00.000026440000,  -1.83520,
,,,-00.000026400000,  -1.83440,
,,,-00.000026360000,  -1.83440,
,,,-00.000026320000,  -1.83440,
,,,-00.000026280000,  -1.83440,
,,,-00.000026240000,  -1.83440,
,,,-00.000026200000,  -1.83440,
,,,-00.000026160000,  -1.83440,
,,,-00.000026120000,  -1.83360,
,,,-00.000026080000,  -1.83440,
,,,-00.000026040000,  -1.83440,
,,,-00.000026000000,  -1.83360,
,,,-00.000025960000,  -1.83360,
,,,-00.000025920000,  -1.83360,
,,,-00.000025880000,  -1.83360,
,,,-00.000025840000,  -1.83360,
,,,-00.000025800000,  -1.83360,
,,,-00.000025760000,  -1.83280,
,,,-00.000025720000,  -1.83360,
,,,-00.000025680000,  -1.83280,
,,,-00.000025640000,  -1.83360,
,,,-00.000025600000,  -1.83360,
,,,-00.000025560000,  -1.83360,
,,,-00.000025520000,  -1.83360,
,,,-00.000025480000,  -1.83360,
,,,-00.000025440000,  -1.83360,
,,,-00.000025400000,  -1.83360,
,,,-00.000025360000,  -1.83360,
,,,-00.000025320000,  -1.83440,
,,,-00.000025280000,  -1.83360,
,,,-00.000025240000,  -1.83440,
,,,-00.000025200000,  -1.83440,
,,,-00.000025160000,  -1.83440,
,,,-00.000025120000,  -1.83440,
,,,-00.000025080000,  -1.83440,
,,,-00.000025040000,  -1.83440,
,,,-00.000025000000,  -1.83440,
,,,-00.000024960000,  -1.83440,
,,,-00.000024920000,  -1.83440,
,,,-00.000024880000,  -1.83440,
,,,-00.000024840000,  -1.83520,
,,,-00.000024800000,  -1.83440,
,,,-00.000024760000,  -1.83440,
,,,-00.000024720000,  -1.83440,
,,,-00.000024680000,  -1.83440,
,,,-00.000024640000,  -1.83440,
,,,-00.000024600000,  -1.83440,
,,,-00.000024560000,  -1.83440,
,,,-00.000024520000,  -1.83440,
,,,-00.000024480000,  -1.83440,
,,,-00.000024440000,  -1.83440,
,,,-00.000024400000,  -1.83440,
,,,-00.000024360000,  -1.83440,
,,,-00.000024320000,  -1.83440,
,,,-00.000024280000,  -1.83440,
,,,-00.000024240000,  -1.83440,
,,,-00.000024200000,  -1.83440,
,,,-00.000024160000,  -1.83440,
,,,-00.000024120000,  -1.83440,
,,,-00.000024080000,  -1.83440,
,,,-00.000024040000,  -1.83440,
,,,-00.000024000000,  -1.83520,
,,,-00.000023960000,  -1.83520,
,,,-00.000023920000,  -1.83440,
,,,-00.000023880000,  -1.83440,
,,,-00.000023840000,  -1.83520,
,,,-00.000023800000,  -1.83520,
,,,-00.000023760000,  -1.83520,
,,,-00.000023720000,  -1.83520,
,,,-00.000023680000,  -1.83520,
,,,-00.000023640000,  -1.83520,
,,,-00.000023600000,  -1.83440,
,,,-00.000023560000,  -1.83520,
,,,-00.000023520000,  -1.83520,
,,,-00.000023480000,  -1.83520,
,,,-00.000023440000,  -1.83520,
,,,-00.000023400000,  -1.83520,
,,,-00.000023360000,  -1.83520,
,,,-00.000023320000,  -1.83600,
,,,-00.000023280000,  -1.83520,
,,,-00.000023240000,  -1.83520,
,,,-00.000023200000,  -1.83520,
,,,-00.000023160000,  -1.83520,
,,,-00.000023120000,  -1.83520,
,,,-00.000023080000,  -1.83520,
,,,-00.000023040000,  -1.83520,
,,,-00.000023000000,  -1.83440,
,,,-00.000022960000,  -1.83440,
,,,-00.000022920000,  -1.83520,
,,,-00.000022880000,  -1.83520,
,,,-00.000022840000,  -1.83440,
,,,-00.000022800000,  -1.83440,
,,,-00.000022760000,  -1.83520,
,,,-00.000022720000,  -1.83520,
,,,-00.000022680000,  -1.83440,
,,,-00.000022640000,  -1.83440,
,,,-00.000022600000,  -1.83440,
,,,-00.000022560000,  -1.83440,
,,,-00.000022520000,  -1.83440,
,,,-00.000022480000,  -1.83440,
,,,-00.000022440000,  -1.83440,
,,,-00.000022400000,  -1.83440,
,,,-00.000022360000,  -1.83440,
,,,-00.000022320000,  -1.83440,
,,,-00.000022280000,  -1.83440,
,,,-00.000022240000,  -1.83440,
,,,-00.000022200000,  -1.83440,
,,,-00.000022160000,  -1.83440,
,,,-00.000022120000,  -1.83360,
,,,-00.000022080000,  -1.83440,
,,,-00.000022040000,  -1.83440,
,,,-00.000022000000,  -1.83440,
,,,-00.000021960000,  -1.83440,
,,,-00.000021920000,  -1.83440,
,,,-00.000021880000,  -1.83440,
,,,-00.000021840000,  -1.83440,
,,,-00.000021800000,  -1.83440,
,,,-00.000021760000,  -1.83440,
,,,-00.000021720000,  -1.83440,
,,,-00.000021680000,  -1.83440,
,,,-00.000021640000,  -1.83440,
,,,-00.000021600000,  -1.83360,
,,,-00.000021560000,  -1.83440,
,,,-00.000021520000,  -1.83440,
,,,-00.000021480000,  -1.83360,
,,,-00.000021440000,  -1.83440,
,,,-00.000021400000,  -1.83360,
,,,-00.000021360000,  -1.83440,
,,,-00.000021320000,  -1.83440,
,,,-00.000021280000,  -1.83440,
,,,-00.000021240000,  -1.83440,
,,,-00.000021200000,  -1.83440,
,,,-00.000021160000,  -1.83440,
,,,-00.000021120000,  -1.83360,
,,,-00.000021080000,  -1.83440,
,,,-00.000021040000,  -1.83440,
,,,-00.000021000000,  -1.83360,
,,,-00.000020960000,  -1.83360,
,,,-00.000020920000,  -1.83360,
,,,-00.000020880000,  -1.83360,
,,,-00.000020840000,  -1.83360,
,,,-00.000020800000,  -1.83360,
,,,-00.000020760000,  -1.83360,
,,,-00.000020720000,  -1.83360,
,,,-00.000020680000,  -1.83360,
,,,-00.000020640000,  -1.83360,
,,,-00.000020600000,  -1.83360,
,,,-00.000020560000,  -1.83360,
,,,-00.000020520000,  -1.83360,
,,,-00.000020480000,  -1.83520,
,,,-00.000020440000,  -1.83280,
,,,-00.000020400000,  -1.83200,
,,,-00.000020360000,  -1.83280,
,,,-00.000020320000,  -1.83360,
,,,-00.000020280000,  -1.83360,
,,,-00.000020240000,  -1.83360,
,,,-00.000020200000,  -1.83360,
,,,-00.000020160000,  -1.83360,
,,,-00.000020120000,  -1.83360,
,,,-00.000020080000,  -1.83280,
,,,-00.000020040000,  -1.83280,
,,,-00.000020000000,  -1.83200,
,,,-00.000019960000,  -1.83200,
,,,-00.000019920000,  -1.83200,
,,,-00.000019880000,  -1.83200,
,,,-00.000019840000,  -1.83200,
,,,-00.000019800000,  -1.83200,
,,,-00.000019760000,  -1.83200,
,,,-00.000019720000,  -1.83200,
,,,-00.000019680000,  -1.83200,
,,,-00.000019640000,  -1.83200,
,,,-00.000019600000,  -1.83200,
,,,-00.000019560000,  -1.83280,
,,,-00.000019520000,  -1.83280,
,,,-00.000019480000,  -1.83280,
,,,-00.000019440000,  -1.83280,
,,,-00.000019400000,  -1.83280,
,,,-00.000019360000,  -1.83360,
,,,-00.000019320000,  -1.83360,
,,,-00.000019280000,  -1.83360,
,,,-00.000019240000,  -1.83360,
,,,-00.000019200000,  -1.83360,
,,,-00.000019160000,  -1.83360,
,,,-00.000019120000,  -1.83360,
,,,-00.000019080000,  -1.83360,
,,,-00.000019040000,  -1.83360,
,,,-00.000019000000,  -1.83360,
,,,-00.000018960000,  -1.83360,
,,,-00.000018920000,  -1.83280,
,,,-00.000018880000,  -1.83280,
,,,-00.000018840000,  -1.83280,
,,,-00.000018800000,  -1.83280,
,,,-00.000018760000,  -1.83280,
,,,-00.000018720000,  -1.83280,
,,,-00.000018680000,  -1.83200,
,,,-00.000018640000,  -1.83280,
,,,-00.000018600000,  -1.83280,
,,,-00.000018560000,  -1.83280,
,,,-00.000018520000,  -1.83200,
,,,-00.000018480000,  -1.83200,
,,,-00.000018440000,  -1.83200,
,,,-00.000018400000,  -1.83280,
,,,-00.000018360000,  -1.83200,
,,,-00.000018320000,  -1.83280,
,,,-00.000018280000,  -1.83280,
,,,-00.000018240000,  -1.83280,
,,,-00.000018200000,  -1.83280,
,,,-00.000018160000,  -1.83280,
,,,-00.000018120000,  -1.83280,
,,,-00.000018080000,  -1.83280,
,,,-00.000018040000,  -1.83280,
,,,-00.000018000000,  -1.83280,
,,,-00.000017960000,  -1.83280,
,,,-00.000017920000,  -1.83280,
,,,-00.000017880000,  -1.83280,
,,,-00.000017840000,  -1.83280,
,,,-00.000017800000,  -1.83280,
,,,-00.000017760000,  -1.83280,
,,,-00.000017720000,  -1.83360,
,,,-00.000017680000,  -1.83360,
,,,-00.000017640000,  -1.83280,
,,,-00.000017600000,  -1.83280,
,,,-00.000017560000,  -1.83280,
,,,-00.000017520000,  -1.83280,
,,,-00.000017480000,  -1.83280,
,,,-00.000017440000,  -1.83280,
,,,-00.000017400000,  -1.83280,
,,,-00.000017360000,  -1.83280,
,,,-00.000017320000,  -1.83280,
,,,-00.000017280000,  -1.83280,
,,,-00.000017240000,  -1.83280,
,,,-00.000017200000,  -1.83280,
,,,-00.000017160000,  -1.83280,
,,,-00.000017120000,  -1.83280,
,,,-00.000017080000,  -1.83360,
,,,-00.000017040000,  -1.83360,
,,,-00.000017000000,  -1.83360,
,,,-00.000016960000,  -1.83280,
,,,-00.000016920000,  -1.83360,
,,,-00.000016880000,  -1.83360,
,,,-00.000016840000,  -1.83360,
,,,-00.000016800000,  -1.83360,
,,,-00.000016760000,  -1.83360,
,,,-00.000016720000,  -1.83360,
,,,-00.000016680000,  -1.83360,
,,,-00.000016640000,  -1.83360,
,,,-00.000016600000,  -1.83360,
,,,-00.000016560000,  -1.83360,
,,,-00.000016520000,  -1.83360,
,,,-00.000016480000,  -1.83360,
,,,-00.000016440000,  -1.83360,
,,,-00.000016400000,  -1.83280,
,,,-00.000016360000,  -1.83360,
,,,-00.000016320000,  -1.83360,
,,,-00.000016280000,  -1.83360,
,,,-00.000016240000,  -1.83280,
,,,-00.000016200000,  -1.83360,
,,,-00.000016160000,  -1.83280,
,,,-00.000016120000,  -1.83280,
,,,-00.000016080000,  -1.83360,
,,,-00.000016040000,  -1.83360,
,,,-00.000016000000,  -1.83280,
,,,-00.000015960000,  -1.83280,
,,,-00.000015920000,  -1.83360,
,,,-00.000015880000,  -1.83360,
,,,-00.000015840000,  -1.83360,
,,,-00.000015800000,  -1.83360,
,,,-00.000015760000,  -1.83360,
,,,-00.000015720000,  -1.83360,
,,,-00.000015680000,  -1.83360,
,,,-00.000015640000,  -1.83360,
,,,-00.000015600000,  -1.83360,
,,,-00.000015560000,  -1.83360,
,,,-00.000015520000,  -1.83360,
,,,-00.000015480000,  -1.83360,
,,,-00.000015440000,  -1.83360,
,,,-00.000015400000,  -1.83360,
,,,-00.000015360000,  -1.83360,
,,,-00.000015320000,  -1.83360,
,,,-00.000015280000,  -1.83360,
,,,-00.000015240000,  -1.83360,
,,,-00.000015200000,  -1.83440,
,,,-00.000015160000,  -1.83440,
,,,-00.000015120000,  -1.83360,
,,,-00.000015080000,  -1.83280,
,,,-00.000015040000,  -1.83280,
,,,-00.000015000000,  -1.83280,
,,,-00.000014960000,  -1.83360,
,,,-00.000014920000,  -1.83360,
,,,-00.000014880000,  -1.83360,
,,,-00.000014840000,  -1.83360,
,,,-00.000014800000,  -1.83360,
,,,-00.000014760000,  -1.83360,
,,,-00.000014720000,  -1.83440,
,,,-00.000014680000,  -1.83440,
,,,-00.000014640000,  -1.83440,
,,,-00.000014600000,  -1.83440,
,,,-00.000014560000,  -1.83440,
,,,-00.000014520000,  -1.83440,
,,,-00.000014480000,  -1.83360,
,,,-00.000014440000,  -1.83360,
,,,-00.000014400000,  -1.83440,
,,,-00.000014360000,  -1.83360,
,,,-00.000014320000,  -1.83360,
,,,-00.000014280000,  -1.83360,
,,,-00.000014240000,  -1.83280,
,,,-00.000014200000,  -1.83280,
,,,-00.000014160000,  -1.83280,
,,,-00.000014120000,  -1.83280,
,,,-00.000014080000,  -1.83280,
,,,-00.000014040000,  -1.83280,
,,,-00.000014000000,  -1.83280,
,,,-00.000013960000,  -1.83200,
,,,-00.000013920000,  -1.83280,
,,,-00.000013880000,  -1.83280,
,,,-00.000013840000,  -1.83280,
,,,-00.000013800000,  -1.83280,
,,,-00.000013760000,  -1.83200,
,,,-00.000013720000,  -1.83280,
,,,-00.000013680000,  -1.83200,
,,,-00.000013640000,  -1.83280,
,,,-00.000013600000,  -1.83280,
,,,-00.000013560000,  -1.83280,
,,,-00.000013520000,  -1.83200,
,,,-00.000013480000,  -1.83280,
,,,-00.000013440000,  -1.83280,
,,,-00.000013400000,  -1.83280,
,,,-00.000013360000,  -1.83280,
,,,-00.000013320000,  -1.83280,
,,,-00.000013280000,  -1.83280,
,,,-00.000013240000,  -1.83280,
,,,-00.000013200000,  -1.83280,
,,,-00.000013160000,  -1.83280,
,,,-00.000013120000,  -1.83280,
,,,-00.000013080000,  -1.83280,
,,,-00.000013040000,  -1.83280,
,,,-00.000013000000,  -1.83200,
,,,-00.000012960000,  -1.83200,
,,,-00.000012920000,  -1.83200,
,,,-00.000012880000,  -1.83200,
,,,-00.000012840000,  -1.83200,
,,,-00.000012800000,  -1.83280,
,,,-00.000012760000,  -1.83200,
,,,-00.000012720000,  -1.83200,
,,,-00.000012680000,  -1.83200,
,,,-00.000012640000,  -1.83200,
,,,-00.000012600000,  -1.83200,
,,,-00.000012560000,  -1.83200,
,,,-00.000012520000,  -1.83200,
,,,-00.000012480000,  -1.83200,
,,,-00.000012440000,  -1.83200,
,,,-00.000012400000,  -1.83200,
,,,-00.000012360000,  -1.83200,
,,,-00.000012320000,  -1.83200,
,,,-00.000012280000,  -1.83200,
,,,-00.000012240000,  -1.83120,
,,,-00.000012200000,  -1.83200,
,,,-00.000012160000,  -1.83200,
,,,-00.000012120000,  -1.83120,
,,,-00.000012080000,  -1.83200,
,,,-00.000012040000,  -1.83120,
,,,-00.000012000000,  -1.83120,
,,,-00.000011960000,  -1.83200,
,,,-00.000011920000,  -1.83200,
,,,-00.000011880000,  -1.83200,
,,,-00.000011840000,  -1.83200,
,,,-00.000011800000,  -1.83200,
,,,-00.000011760000,  -1.83120,
,,,-00.000011720000,  -1.83120,
,,,-00.000011680000,  -1.83200,
,,,-00.000011640000,  -1.83200,
,,,-00.000011600000,  -1.83200,
,,,-00.000011560000,  -1.83120,
,,,-00.000011520000,  -1.83120,
,,,-00.000011480000,  -1.83200,
,,,-00.000011440000,  -1.83200,
,,,-00.000011400000,  -1.83120,
,,,-00.000011360000,  -1.83120,
,,,-00.000011320000,  -1.83120,
,,,-00.000011280000,  -1.83120,
,,,-00.000011240000,  -1.83120,
,,,-00.000011200000,  -1.83200,
,,,-00.000011160000,  -1.83200,
,,,-00.000011120000,  -1.83120,
,,,-00.000011080000,  -1.83200,
,,,-00.000011040000,  -1.83200,
,,,-00.000011000000,  -1.83200,
,,,-00.000010960000,  -1.83200,
,,,-00.000010920000,  -1.83200,
,,,-00.000010880000,  -1.83200,
,,,-00.000010840000,  -1.83200,
,,,-00.000010800000,  -1.83200,
,,,-00.000010760000,  -1.83200,
,,,-00.000010720000,  -1.83200,
,,,-00.000010680000,  -1.83200,
,,,-00.000010640000,  -1.83200,
,,,-00.000010600000,  -1.83200,
,,,-00.000010560000,  -1.83200,
,,,-00.000010520000,  -1.83200,
,,,-00.000010480000,  -1.83200,
,,,-00.000010440000,  -1.83200,
,,,-00.000010400000,  -1.83200,
,,,-00.000010360000,  -1.83120,
,,,-00.000010320000,  -1.83200,
,,,-00.000010280000,  -1.83120,
,,,-00.000010240000,  -1.83120,
,,,-00.000010200000,  -1.83200,
,,,-00.000010160000,  -1.83120,
,,,-00.000010120000,  -1.83120,
,,,-00.000010080000,  -1.83120,
,,,-00.000010040000,  -1.83120,
,,,-00.000010000000,  -1.83120,
,,,-00.000009960000,  -1.83120,
,,,-00.000009920000,  -1.83120,
,,,-00.000009880000,  -1.83120,
,,,-00.000009840000,  -1.83120,
,,,-00.000009800000,  -1.83120,
,,,-00.000009760000,  -1.83120,
,,,-00.000009720000,  -1.83120,
,,,-00.000009680000,  -1.83120,
,,,-00.000009640000,  -1.83120,
,,,-00.000009600000,  -1.83120,
,,,-00.000009560000,  -1.83200,
,,,-00.000009520000,  -1.83120,
,,,-00.000009480000,  -1.83120,
,,,-00.000009440000,  -1.83120,
,,,-00.000009400000,  -1.83120,
,,,-00.000009360000,  -1.83120,
,,,-00.000009320000,  -1.83200,
,,,-00.000009280000,  -1.83200,
,,,-00.000009240000,  -1.83120,
,,,-00.000009200000,  -1.83200,
,,,-00.000009160000,  -1.83200,
,,,-00.000009120000,  -1.83200,
,,,-00.000009080000,  -1.83200,
,,,-00.000009040000,  -1.83120,
,,,-00.000009000000,  -1.83120,
,,,-00.000008960000,  -1.83200,
,,,-00.000008920000,  -1.83120,
,,,-00.000008880000,  -1.83200,
,,,-00.000008840000,  -1.83120,
,,,-00.000008800000,  -1.83200,
,,,-00.000008760000,  -1.83120,
,,,-00.000008720000,  -1.83120,
,,,-00.000008680000,  -1.83120,
,,,-00.000008640000,  -1.83280,
,,,-00.000008600000,  -1.83120,
,,,-00.000008560000,  -1.83040,
,,,-00.000008520000,  -1.83120,
,,,-00.000008480000,  -1.83200,
,,,-00.000008440000,  -1.83200,
,,,-00.000008400000,  -1.83120,
,,,-00.000008360000,  -1.83200,
,,,-00.000008320000,  -1.83120,
,,,-00.000008280000,  -1.83120,
,,,-00.000008240000,  -1.83120,
,,,-00.000008200000,  -1.82960,
,,,-00.000008160000,  -1.83040,
,,,-00.000008120000,  -1.82960,
,,,-00.000008080000,  -1.82960,
,,,-00.000008040000,  -1.82960,
,,,-00.000008000000,  -1.82960,
,,,-00.000007960000,  -1.82960,
,,,-00.000007920000,  -1.82960,
,,,-00.000007880000,  -1.82960,
,,,-00.000007840000,  -1.82960,
,,,-00.000007800000,  -1.83040,
,,,-00.000007760000,  -1.82960,
,,,-00.000007720000,  -1.83040,
,,,-00.000007680000,  -1.83040,
,,,-00.000007640000,  -1.83120,
,,,-00.000007600000,  -1.83120,
,,,-00.000007560000,  -1.83120,
,,,-00.000007520000,  -1.83120,
,,,-00.000007480000,  -1.83120,
,,,-00.000007440000,  -1.83120,
,,,-00.000007400000,  -1.83120,
,,,-00.000007360000,  -1.83120,
,,,-00.000007320000,  -1.83120,
,,,-00.000007280000,  -1.83120,
,,,-00.000007240000,  -1.83120,
,,,-00.000007200000,  -1.83120,
,,,-00.000007160000,  -1.83120,
,,,-00.000007120000,  -1.83040,
,,,-00.000007080000,  -1.83040,
,,,-00.000007040000,  -1.83040,
,,,-00.000007000000,  -1.83040,
,,,-00.000006960000,  -1.83040,
,,,-00.000006920000,  -1.83040,
,,,-00.000006880000,  -1.83040,
,,,-00.000006840000,  -1.83040,
,,,-00.000006800000,  -1.83040,
,,,-00.000006760000,  -1.83040,
,,,-00.000006720000,  -1.82960,
,,,-00.000006680000,  -1.83040,
,,,-00.000006640000,  -1.83040,
,,,-00.000006600000,  -1.83040,
,,,-00.000006560000,  -1.83040,
,,,-00.000006520000,  -1.83040,
,,,-00.000006480000,  -1.83040,
,,,-00.000006440000,  -1.83040,
,,,-00.000006400000,  -1.83120,
,,,-00.000006360000,  -1.83040,
,,,-00.000006320000,  -1.83040,
,,,-00.000006280000,  -1.83040,
,,,-00.000006240000,  -1.83040,
,,,-00.000006200000,  -1.83040,
,,,-00.000006160000,  -1.83040,
,,,-00.000006120000,  -1.83040,
,,,-00.000006080000,  -1.83120,
,,,-00.000006040000,  -1.83040,
,,,-00.000006000000,  -1.83040,
,,,-00.000005960000,  -1.83120,
,,,-00.000005920000,  -1.83120,
,,,-00.000005880000,  -1.83120,
,,,-00.000005840000,  -1.83120,
,,,-00.000005800000,  -1.83040,
,,,-00.000005760000,  -1.83040,
,,,-00.000005720000,  -1.83040,
,,,-00.000005680000,  -1.83040,
,,,-00.000005640000,  -1.83040,
,,,-00.000005600000,  -1.83120,
,,,-00.000005560000,  -1.83040,
,,,-00.000005520000,  -1.83040,
,,,-00.000005480000,  -1.83040,
