Data 3 & 5/38V.CSV

Record Length,2.500000e+03,,  -0.000005000000,  -2.69000,
Sample Interval,2.000000e-08,,  -0.000004980000,  -2.69000,
Trigger Point,2.500000000000e+02,,  -0.000004960000,  -2.69000,
,,,  -0.000004940000,  -2.69000,
,,,  -0.000004920000,  -2.69000,
,,,  -0.000004900000,  -2.69000,
Source,CH1,,  -0.000004880000,  -2.69000,
Vertical Units,V,,  -0.000004860000,  -2.69000,
Vertical Scale,5.000000e-02,,  -0.000004840000,  -2.69000,
Vertical Offset,2.616000e+00,,  -0.000004820000,  -2.69000,
Horizontal Units,s,,  -0.000004800000,  -2.69000,
Horizontal Scale,5.000000e-06,,  -0.000004780000,  -2.69000,
Pt Fmt,Y,,  -0.000004760000,  -2.69000,
Yzero,0.000000e+00,,  -0.000004740000,  -2.69000,
Probe Atten,1.000000e+01,,  -0.000004720000,  -2.69000,
Model Number,TBS1052B,,  -0.000004700000,  -2.69000,
Serial Number,C031782,,  -0.000004680000,  -2.69000,
Firmware Version,FV:v4.06,,  -0.000004660000,  -2.69000,
,,,-00.000004640000,  -2.69000,
,,,-00.000004620000,  -2.69000,
,,,-00.000004600000,  -2.69000,
,,,-00.000004580000,  -2.69000,
,,,-00.000004560000,  -2.69000,
,,,-00.000004540000,  -2.69000,
,,,-00.000004520000,  -2.69000,
,,,-00.000004500000,  -2.69000,
,,,-00.000004480000,  -2.69000,
,,,-00.000004460000,  -2.69000,
,,,-00.000004440000,  -2.69000,
,,,-00.000004420000,  -2.69000,
,,,-00.000004400000,  -2.69000,
,,,-00.000004380000,  -2.69000,
,,,-00.000004360000,  -2.68800,
,,,-00.000004340000,  -2.69000,
,,,-00.000004320000,  -2.69000,
,,,-00.000004300000,  -2.68800,
,,,-00.000004280000,  -2.69000,
,,,-00.000004260000,  -2.68800,
,,,-00.000004240000,  -2.69000,
,,,-00.000004220000,  -2.68800,
,,,-00.000004200000,  -2.68800,
,,,-00.000004180000,  -2.68800,
,,,-00.000004160000,  -2.69000,
,,,-00.000004140000,  -2.68800,
,,,-00.000004120000,  -2.68800,
,,,-00.000004100000,  -2.69000,
,,,-00.000004080000,  -2.68800,
,,,-00.000004060000,  -2.68800,
,,,-00.000004040000,  -2.68800,
,,,-00.000004020000,  -2.68800,
,,,-00.000004000000,  -2.68800,
,,,-00.000003980000,  -2.68800,
,,,-00.000003960000,  -2.68800,
,,,-00.000003940000,  -2.68800,
,,,-00.000003920000,  -2.68800,
,,,-00.000003900000,  -2.68800,
,,,-00.000003880000,  -2.69000,
,,,-00.000003860000,  -2.68800,
,,,-00.000003840000,  -2.69000,
,,,-00.000003820000,  -2.68800,
,,,-00.000003800000,  -2.69000,
,,,-00.000003780000,  -2.69000,
,,,-00.000003760000,  -2.68800,
,,,-00.000003740000,  -2.68800,
,,,-00.000003720000,  -2.68800,
,,,-00.000003700000,  -2.69000,
,,,-00.000003680000,  -2.69000,
,,,-00.000003660000,  -2.69000,
,,,-00.000003640000,  -2.68800,
,,,-00.000003620000,  -2.69000,
,,,-00.000003600000,  -2.68800,
,,,-00.000003580000,  -2.69000,
,,,-00.000003560000,  -2.69000,
,,,-00.000003540000,  -2.69000,
,,,-00.000003520000,  -2.69000,
,,,-00.000003500000,  -2.68800,
,,,-00.000003480000,  -2.69000,
,,,-00.000003460000,  -2.68800,
,,,-00.000003440000,  -2.69000,
,,,-00.000003420000,  -2.68800,
,,,-00.000003400000,  -2.69000,
,,,-00.000003380000,  -2.68800,
,,,-00.000003360000,  -2.69000,
,,,-00.000003340000,  -2.68800,
,,,-00.000003320000,  -2.69000,
,,,-00.000003300000,  -2.69000,
,,,-00.000003280000,  -2.69000,
,,,-00.000003260000,  -2.69000,
,,,-00.000003240000,  -2.68800,
,,,-00.000003220000,  -2.69000,
,,,-00.000003200000,  -2.69000,
,,,-00.000003180000,  -2.68800,
,,,-00.000003160000,  -2.69000,
,,,-00.000003140000,  -2.69000,
,,,-00.000003120000,  -2.69000,
,,,-00.000003100000,  -2.69000,
,,,-00.000003080000,  -2.69000,
,,,-00.000003060000,  -2.69000,
,,,-00.000003040000,  -2.69000,
,,,-00.000003020000,  -2.69000,
,,,-00.000003000000,  -2.69000,
,,,-00.000002980000,  -2.69000,
,,,-00.000002960000,  -2.69000,
,,,-00.000002940000,  -2.69000,
,,,-00.000002920000,  -2.69000,
,,,-00.000002900000,  -2.69000,
,,,-00.000002880000,  -2.69000,
,,,-00.000002860000,  -2.69000,
,,,-00.000002840000,  -2.69000,
,,,-00.000002820000,  -2.68800,
,,,-00.000002800000,  -2.68800,
,,,-00.000002780000,  -2.69000,
,,,-00.000002760000,  -2.69000,
,,,-00.000002740000,  -2.69000,
,,,-00.000002720000,  -2.69000,
,,,-00.000002700000,  -2.69000,
,,,-00.000002680000,  -2.69000,
,,,-00.000002660000,  -2.68800,
,,,-00.000002640000,  -2.69000,
,,,-00.000002620000,  -2.68800,
,,,-00.000002600000,  -2.69000,
,,,-00.000002580000,  -2.69000,
,,,-00.000002560000,  -2.69000,
,,,-00.000002540000,  -2.68800,
,,,-00.000002520000,  -2.69000,
,,,-00.000002500000,  -2.68800,
,,,-00.000002480000,  -2.68800,
,,,-00.000002460000,  -2.69000,
,,,-00.000002440000,  -2.68800,
,,,-00.000002420000,  -2.68800,
,,,-00.000002400000,  -2.68800,
,,,-00.000002380000,  -2.69000,
,,,-00.000002360000,  -2.68800,
,,,-00.000002340000,  -2.68800,
,,,-00.000002320000,  -2.68800,
,,,-00.000002300000,  -2.68800,
,,,-00.000002280000,  -2.69000,
,,,-00.000002260000,  -2.68800,
,,,-00.000002240000,  -2.68800,
,,,-00.000002220000,  -2.68800,
,,,-00.000002200000,  -2.68800,
,,,-00.000002180000,  -2.68800,
,,,-00.000002160000,  -2.68800,
,,,-00.000002140000,  -2.68800,
,,,-00.000002120000,  -2.68800,
,,,-00.000002100000,  -2.68800,
,,,-00.000002080000,  -2.68800,
,,,-00.000002060000,  -2.68800,
,,,-00.000002040000,  -2.68600,
,,,-00.000002020000,  -2.68800,
,,,-00.000002000000,  -2.68800,
,,,-00.000001980000,  -2.68600,
,,,-00.000001960000,  -2.68800,
,,,-00.000001940000,  -2.68800,
,,,-00.000001920000,  -2.68800,
,,,-00.000001900000,  -2.68600,
,,,-00.000001880000,  -2.68600,
,,,-00.000001860000,  -2.68800,
,,,-00.000001840000,  -2.68600,
,,,-00.000001820000,  -2.68600,
,,,-00.000001800000,  -2.68600,
,,,-00.000001780000,  -2.68600,
,,,-00.000001760000,  -2.68600,
,,,-00.000001740000,  -2.68600,
,,,-00.000001720000,  -2.68600,
,,,-00.000001700000,  -2.68600,
,,,-00.000001680000,  -2.68800,
,,,-00.000001660000,  -2.68600,
,,,-00.000001640000,  -2.68600,
,,,-00.000001620000,  -2.68600,
,,,-00.000001600000,  -2.68600,
,,,-00.000001580000,  -2.68600,
,,,-00.000001560000,  -2.68600,
,,,-00.000001540000,  -2.68600,
,,,-00.000001520000,  -2.68600,
,,,-00.000001500000,  -2.68600,
,,,-00.000001480000,  -2.68600,
,,,-00.000001460000,  -2.68600,
,,,-00.000001440000,  -2.68600,
,,,-00.000001420000,  -2.68600,
,,,-00.000001400000,  -2.68600,
,,,-00.000001380000,  -2.68600,
,,,-00.000001360000,  -2.68600,
,,,-00.000001340000,  -2.68600,
,,,-00.000001320000,  -2.68600,
,,,-00.000001300000,  -2.68600,
,,,-00.000001280000,  -2.68600,
,,,-00.000001260000,  -2.68600,
,,,-00.000001240000,  -2.68600,
,,,-00.000001220000,  -2.68800,
,,,-00.000001200000,  -2.68800,
,,,-00.000001180000,  -2.68600,
,,,-00.000001160000,  -2.68600,
,,,-00.000001140000,  -2.68600,
,,,-00.000001120000,  -2.68800,
,,,-00.000001100000,  -2.68600,
,,,-00.000001080000,  -2.68800,
,,,-00.000001060000,  -2.68800,
,,,-00.000001040000,  -2.68800,
,,,-00.000001020000,  -2.68600,
,,,-00.000001000000,  -2.68600,
,,,-00.000000980000,  -2.68800,
,,,-00.000000960000,  -2.68600,
,,,-00.000000940000,  -2.68800,
,,,-00.000000920000,  -2.68600,
,,,-00.000000900000,  -2.68600,
,,,-00.000000880000,  -2.68800,
,,,-00.000000860000,  -2.68600,
,,,-00.000000840000,  -2.68600,
,,,-00.000000820000,  -2.68600,
,,,-00.000000800000,  -2.68600,
,,,-00.000000780000,  -2.68600,
,,,-00.000000760000,  -2.68600,
,,,-00.000000740000,  -2.68600,
,,,-00.000000720000,  -2.68600,
,,,-00.000000700000,  -2.68600,
,,,-00.000000680000,  -2.68600,
,,,-00.000000660000,  -2.68600,
,,,-00.000000640000,  -2.68600,
,,,-00.000000620000,  -2.68600,
,,,-00.000000600000,  -2.68600,
,,,-00.000000580000,  -2.68600,
,,,-00.000000560000,  -2.68600,
,,,-00.000000540000,  -2.68600,
,,,-00.000000520000,  -2.68600,
,,,-00.000000500000,  -2.68600,
,,,-00.000000480000,  -2.68600,
,,,-00.000000460000,  -2.68600,
,,,-00.000000440000,  -2.68600,
,,,-00.000000420000,  -2.68600,
,,,-00.000000400000,  -2.68600,
,,,-00.000000380000,  -2.68600,
,,,-00.000000360000,  -2.68600,
,,,-00.000000340000,  -2.68600,
,,,-00.000000320000,  -2.68600,
,,,-00.000000300000,  -2.68600,
,,,-00.000000280000,  -2.68600,
,,,-00.000000260000,  -2.68600,
,,,-00.000000240000,  -2.68400,
,,,-00.000000220000,  -2.68600,
,,,-00.000000200000,  -2.68600,
,,,-00.000000180000,  -2.68600,
,,,-00.000000160000,  -2.68600,
,,,-00.000000140000,  -2.68600,
,,,-00.000000120000,  -2.68600,
,,,-00.000000100000,  -2.68600,
,,,-00.000000080000,  -2.68400,
,,,-00.000000060000,  -2.68600,
,,,-00.000000040000,  -2.68600,
,,,-00.000000020000,  -2.68600,
,,,-00.000000000000,  -2.68600,
,,,00.000000020000,  -2.68600,
,,,00.000000040000,  -2.68600,
,,,00.000000060000,  -2.68800,
,,,00.000000080000,  -2.68600,
,,,00.000000100000,  -2.67400,
,,,00.000000120000,  -2.70000,
,,,00.000000140000,  -2.66400,
,,,00.000000160000,  -2.69400,
,,,00.000000180000,  -2.68400,
,,,00.000000200000,  -2.68600,
,,,00.000000220000,  -2.68600,
,,,00.000000240000,  -2.68600,
,,,00.000000260000,  -2.68200,
,,,00.000000280000,  -2.68400,
,,,00.000000300000,  -2.68200,
,,,00.000000320000,  -2.68400,
,,,00.000000340000,  -2.68200,
,,,00.000000360000,  -2.68200,
,,,00.000000380000,  -2.68000,
,,,00.000000400000,  -2.68000,
,,,00.000000420000,  -2.68000,
,,,00.000000440000,  -2.67800,
,,,00.000000460000,  -2.67400,
,,,00.000000480000,  -2.67400,
,,,00.000000500000,  -2.67200,
,,,00.000000520000,  -2.67000,
,,,00.000000540000,  -2.66800,
,,,00.000000560000,  -2.66600,
,,,00.000000580000,  -2.66400,
,,,00.000000600000,  -2.66200,
,,,00.000000620000,  -2.66000,
,,,00.000000640000,  -2.65800,
,,,00.000000660000,  -2.65600,
,,,00.000000680000,  -2.65200,
,,,00.000000700000,  -2.65000,
,,,00.000000720000,  -2.64600,
,,,00.000000740000,  -2.64400,
,,,00.000000760000,  -2.64200,
,,,00.000000780000,  -2.63800,
,,,00.000000800000,  -2.63600,
,,,00.000000820000,  -2.63400,
,,,00.000000840000,  -2.63200,
,,,00.000000860000,  -2.63000,
,,,00.000000880000,  -2.62800,
,,,00.000000900000,  -2.62600,
,,,00.000000920000,  -2.62400,
,,,00.000000940000,  -2.62400,
,,,00.000000960000,  -2.62200,
,,,00.000000980000,  -2.62200,
,,,00.000001000000,  -2.62000,
,,,00.000001020000,  -2.61800,
,,,00.000001040000,  -2.61800,
,,,00.000001060000,  -2.61800,
,,,00.000001080000,  -2.61800,
,,,00.000001100000,  -2.61800,
,,,00.000001120000,  -2.61800,
,,,00.000001140000,  -2.61800,
,,,00.000001160000,  -2.61800,
,,,00.000001180000,  -2.61800,
,,,00.000001200000,  -2.62000,
,,,00.000001220000,  -2.62000,
,,,00.000001240000,  -2.62200,
,,,00.000001260000,  -2.62200,
,,,00.000001280000,  -2.62400,
,,,00.000001300000,  -2.62400,
,,,00.000001320000,  -2.62600,
,,,00.000001340000,  -2.62600,
,,,00.000001360000,  -2.62800,
,,,00.000001380000,  -2.62800,
,,,00.000001400000,  -2.63000,
,,,00.000001420000,  -2.63200,
,,,00.000001440000,  -2.63200,
,,,00.000001460000,  -2.63400,
,,,00.000001480000,  -2.63400,
,,,00.000001500000,  -2.63600,
,,,00.000001520000,  -2.63600,
,,,00.000001540000,  -2.63800,
,,,00.000001560000,  -2.63800,
,,,00.000001580000,  -2.63800,
,,,00.000001600000,  -2.64000,
,,,00.000001620000,  -2.64000,
,,,00.000001640000,  -2.64000,
,,,00.000001660000,  -2.64200,
,,,00.000001680000,  -2.64200,
,,,00.000001700000,  -2.64200,
,,,00.000001720000,  -2.64200,
,,,00.000001740000,  -2.64200,
,,,00.000001760000,  -2.64400,
,,,00.000001780000,  -2.64400,
,,,00.000001800000,  -2.64200,
,,,00.000001820000,  -2.64400,
,,,00.000001840000,  -2.64200,
,,,00.000001860000,  -2.64400,
,,,00.000001880000,  -2.64400,
,,,00.000001900000,  -2.64400,
,,,00.000001920000,  -2.64200,
,,,00.000001940000,  -2.64400,
,,,00.000001960000,  -2.64400,
,,,00.000001980000,  -2.64200,
,,,00.000002000000,  -2.64200,
,,,00.000002020000,  -2.64200,
,,,00.000002040000,  -2.64200,
,,,00.000002060000,  -2.64200,
,,,00.000002080000,  -2.64200,
,,,00.000002100000,  -2.64200,
,,,00.000002120000,  -2.64200,
,,,00.000002140000,  -2.64000,
,,,00.000002160000,  -2.64000,
,,,00.000002180000,  -2.64000,
,,,00.000002200000,  -2.64000,
,,,00.000002220000,  -2.64000,
,,,00.000002240000,  -2.64000,
,,,00.000002260000,  -2.64000,
,,,00.000002280000,  -2.64000,
,,,00.000002300000,  -2.64000,
,,,00.000002320000,  -2.64000,
,,,00.000002340000,  -2.64000,
,,,00.000002360000,  -2.64000,
,,,00.000002380000,  -2.64000,
,,,00.000002400000,  -2.64000,
,,,00.000002420000,  -2.64000,
,,,00.000002440000,  -2.64000,
,,,00.000002460000,  -2.64200,
,,,00.000002480000,  -2.64000,
,,,00.000002500000,  -2.64000,
,,,00.000002520000,  -2.64000,
,,,00.000002540000,  -2.64200,
,,,00.000002560000,  -2.64200,
,,,00.000002580000,  -2.64200,
,,,00.000002600000,  -2.64200,
,,,00.000002620000,  -2.64200,
,,,00.000002640000,  -2.64200,
,,,00.000002660000,  -2.64400,
,,,00.000002680000,  -2.64400,
,,,00.000002700000,  -2.64400,
,,,00.000002720000,  -2.64400,
,,,00.000002740000,  -2.64600,
,,,00.000002760000,  -2.64400,
,,,00.000002780000,  -2.64600,
,,,00.000002800000,  -2.64400,
,,,00.000002820000,  -2.64400,
,,,00.000002840000,  -2.64400,
,,,00.000002860000,  -2.64600,
,,,00.000002880000,  -2.64600,
,,,00.000002900000,  -2.64600,
,,,00.000002920000,  -2.64600,
,,,00.000002940000,  -2.64600,
,,,00.000002960000,  -2.64600,
,,,00.000002980000,  -2.64600,
,,,00.000003000000,  -2.64600,
,,,00.000003020000,  -2.64600,
,,,00.000003040000,  -2.64600,
,,,00.000003060000,  -2.64800,
,,,00.000003080000,  -2.64800,
,,,00.000003100000,  -2.64600,
,,,00.000003120000,  -2.64800,
,,,00.000003140000,  -2.64800,
,,,00.000003160000,  -2.64800,
,,,00.000003180000,  -2.64800,
,,,00.000003200000,  -2.64800,
,,,00.000003220000,  -2.64800,
,,,00.000003240000,  -2.64800,
,,,00.000003260000,  -2.64800,
,,,00.000003280000,  -2.64800,
,,,00.000003300000,  -2.64800,
,,,00.000003320000,  -2.64800,
,,,00.000003340000,  -2.64800,
,,,00.000003360000,  -2.64800,
,,,00.000003380000,  -2.64600,
,,,00.000003400000,  -2.64800,
,,,00.000003420000,  -2.64800,
,,,00.000003440000,  -2.64800,
,,,00.000003460000,  -2.64600,
,,,00.000003480000,  -2.64800,
,,,00.000003500000,  -2.64800,
,,,00.000003520000,  -2.64600,
,,,00.000003540000,  -2.64800,
,,,00.000003560000,  -2.64800,
,,,00.000003580000,  -2.64800,
,,,00.000003600000,  -2.64800,
,,,00.000003620000,  -2.64800,
,,,00.000003640000,  -2.64800,
,,,00.000003660000,  -2.64800,
,,,00.000003680000,  -2.64800,
,,,00.000003700000,  -2.64800,
,,,00.000003720000,  -2.64800,
,,,00.000003740000,  -2.64800,
,,,00.000003760000,  -2.64800,
,,,00.000003780000,  -2.64800,
,,,00.000003800000,  -2.64800,
,,,00.000003820000,  -2.64800,
,,,00.000003840000,  -2.64800,
,,,00.000003860000,  -2.64800,
,,,00.000003880000,  -2.64800,
,,,00.000003900000,  -2.64800,
,,,00.000003920000,  -2.65000,
,,,00.000003940000,  -2.65000,
,,,00.000003960000,  -2.64800,
,,,00.000003980000,  -2.64800,
,,,00.000004000000,  -2.64800,
,,,00.000004020000,  -2.64800,
,,,00.000004040000,  -2.64800,
,,,00.000004060000,  -2.64800,
,,,00.000004080000,  -2.64800,
,,,00.000004100000,  -2.65000,
,,,00.000004120000,  -2.65000,
,,,00.000004140000,  -2.65000,
,,,00.000004160000,  -2.65000,
,,,00.000004180000,  -2.65000,
,,,00.000004200000,  -2.65000,
,,,00.000004220000,  -2.65000,
,,,00.000004240000,  -2.65000,
,,,00.000004260000,  -2.65000,
,,,00.000004280000,  -2.64800,
,,,00.000004300000,  -2.65000,
,,,00.000004320000,  -2.65000,
,,,00.000004340000,  -2.65000,
,,,00.000004360000,  -2.65000,
,,,00.000004380000,  -2.65000,
,,,00.000004400000,  -2.65000,
,,,00.000004420000,  -2.65000,
,,,00.000004440000,  -2.65000,
,,,00.000004460000,  -2.65000,
,,,00.000004480000,  -2.65000,
,,,00.000004500000,  -2.65000,
,,,00.000004520000,  -2.64800,
,,,00.000004540000,  -2.64800,
,,,00.000004560000,  -2.64800,
,,,00.000004580000,  -2.65000,
,,,00.000004600000,  -2.65000,
,,,00.000004620000,  -2.65000,
,,,00.000004640000,  -2.65000,
,,,00.000004660000,  -2.65000,
,,,00.000004680000,  -2.65000,
,,,00.000004700000,  -2.65000,
,,,00.000004720000,  -2.65000,
,,,00.000004740000,  -2.65000,
,,,00.000004760000,  -2.65000,
,,,00.000004780000,  -2.65000,
,,,00.000004800000,  -2.65000,
,,,00.000004820000,  -2.65000,
,,,00.000004840000,  -2.65000,
,,,00.000004860000,  -2.65200,
,,,00.000004880000,  -2.65000,
,,,00.000004900000,  -2.65000,
,,,00.000004920000,  -2.65000,
,,,00.000004940000,  -2.65000,
,,,00.000004960000,  -2.65000,
,,,00.000004980000,  -2.65000,
,,,00.000005000000,  -2.65000,
,,,00.000005020000,  -2.65000,
,,,00.000005040000,  -2.65000,
,,,00.000005060000,  -2.65000,
,,,00.000005080000,  -2.65000,
,,,00.000005100000,  -2.65000,
,,,00.000005120000,  -2.65200,
,,,00.000005140000,  -2.65000,
,,,00.000005160000,  -2.65200,
,,,00.000005180000,  -2.65200,
,,,00.000005200000,  -2.65200,
,,,00.000005220000,  -2.65000,
,,,00.000005240000,  -2.65200,
,,,00.000005260000,  -2.65200,
,,,00.000005280000,  -2.65200,
,,,00.000005300000,  -2.65200,
,,,00.000005320000,  -2.65200,
,,,00.000005340000,  -2.65200,
,,,00.000005360000,  -2.65200,
,,,00.000005380000,  -2.65200,
,,,00.000005400000,  -2.65200,
,,,00.000005420000,  -2.65200,
,,,00.000005440000,  -2.65200,
,,,00.000005460000,  -2.65000,
,,,00.000005480000,  -2.65000,
,,,00.000005500000,  -2.65000,
,,,00.000005520000,  -2.65200,
,,,00.000005540000,  -2.65000,
,,,00.000005560000,  -2.65000,
,,,00.000005580000,  -2.65200,
,,,00.000005600000,  -2.65000,
,,,00.000005620000,  -2.65000,
,,,00.000005640000,  -2.65000,
,,,00.000005660000,  -2.65200,
,,,00.000005680000,  -2.65200,
,,,00.000005700000,  -2.65200,
,,,00.000005720000,  -2.65200,
,,,00.000005740000,  -2.65200,
,,,00.000005760000,  -2.65000,
,,,00.000005780000,  -2.65000,
,,,00.000005800000,  -2.65000,
,,,00.000005820000,  -2.65000,
,,,00.000005840000,  -2.65000,
,,,00.000005860000,  -2.65000,
,,,00.000005880000,  -2.65200,
,,,00.000005900000,  -2.65200,
,,,00.000005920000,  -2.65000,
,,,00.000005940000,  -2.65000,
,,,00.000005960000,  -2.65000,
,,,00.000005980000,  -2.65200,
,,,00.000006000000,  -2.65200,
,,,00.000006020000,  -2.65200,
,,,00.000006040000,  -2.65200,
,,,00.000006060000,  -2.65000,
,,,00.000006080000,  -2.65200,
,,,00.000006100000,  -2.65200,
,,,00.000006120000,  -2.65200,
,,,00.000006140000,  -2.65200,
,,,00.000006160000,  -2.65200,
,,,00.000006180000,  -2.65200,
,,,00.000006200000,  -2.65200,
,,,00.000006220000,  -2.65200,
,,,00.000006240000,  -2.65200,
,,,00.000006260000,  -2.65200,
,,,00.000006280000,  -2.65000,
,,,00.000006300000,  -2.65200,
,,,00.000006320000,  -2.65200,
,,,00.000006340000,  -2.65200,
,,,00.000006360000,  -2.65200,
,,,00.000006380000,  -2.65200,
,,,00.000006400000,  -2.65000,
,,,00.000006420000,  -2.65000,
,,,00.000006440000,  -2.65000,
,,,00.000006460000,  -2.65200,
,,,00.000006480000,  -2.65000,
,,,00.000006500000,  -2.65000,
,,,00.000006520000,  -2.65000,
,,,00.000006540000,  -2.65000,
,,,00.000006560000,  -2.65000,
,,,00.000006580000,  -2.65000,
,,,00.000006600000,  -2.65000,
,,,00.000006620000,  -2.65000,
,,,00.000006640000,  -2.64800,
,,,00.000006660000,  -2.65000,
,,,00.000006680000,  -2.64800,
,,,00.000006700000,  -2.65000,
,,,00.000006720000,  -2.64800,
,,,00.000006740000,  -2.64800,
,,,00.000006760000,  -2.64800,
,,,00.000006780000,  -2.64800,
,,,00.000006800000,  -2.64800,
,,,00.000006820000,  -2.65000,
,,,00.000006840000,  -2.64800,
,,,00.000006860000,  -2.64800,
,,,00.000006880000,  -2.64800,
,,,00.000006900000,  -2.65000,
,,,00.000006920000,  -2.65000,
,,,00.000006940000,  -2.64800,
,,,00.000006960000,  -2.64800,
,,,00.000006980000,  -2.65000,
,,,00.000007000000,  -2.64800,
,,,00.000007020000,  -2.65000,
,,,00.000007040000,  -2.64800,
,,,00.000007060000,  -2.64800,
,,,00.000007080000,  -2.64800,
,,,00.000007100000,  -2.64800,
,,,00.000007120000,  -2.64800,
,,,00.000007140000,  -2.64800,
,,,00.000007160000,  -2.64800,
,,,00.000007180000,  -2.64800,
,,,00.000007200000,  -2.64800,
,,,00.000007220000,  -2.64800,
,,,00.000007240000,  -2.64800,
,,,00.000007260000,  -2.64800,
,,,00.000007280000,  -2.64800,
,,,00.000007300000,  -2.64800,
,,,00.000007320000,  -2.64800,
,,,00.000007340000,  -2.64800,
,,,00.000007360000,  -2.64800,
,,,00.000007380000,  -2.64800,
,,,00.000007400000,  -2.64800,
,,,00.000007420000,  -2.64800,
,,,00.000007440000,  -2.64800,
,,,00.000007460000,  -2.64800,
,,,00.000007480000,  -2.64800,
,,,00.000007500000,  -2.64800,
