Data 8 (new sample vary d)/ALL0014/F0014CH1.CSV

Record Length,2.500000e+03,,  -0.000030000000,  -0.21440,
Sample Interval,4.000000e-08,,  -0.000029960000,  -0.21360,
Trigger Point,7.500000000000e+02,,  -0.000029920000,  -0.21360,
,,,  -0.000029880000,  -0.21360,
,,,  -0.000029840000,  -0.21360,
,,,  -0.000029800000,  -0.21360,
Source,CH1,,  -0.000029760000,  -0.21360,
Vertical Units,V,,  -0.000029720000,  -0.21360,
Vertical Scale,2.000000e-02,,  -0.000029680000,  -0.21440,
Vertical Offset,2.008000e-01,,  -0.000029640000,  -0.21360,
Horizontal Units,s,,  -0.000029600000,  -0.21440,
Horizontal Scale,1.000000e-05,,  -0.000029560000,  -0.21440,
Pt Fmt,Y,,  -0.000029520000,  -0.21440,
Yzero,0.000000e+00,,  -0.000029480000,  -0.21440,
Probe Atten,1.000000e+01,,  -0.000029440000,  -0.21360,
Model Number,TBS1052B,,  -0.000029400000,  -0.21440,
Serial Number,C031782,,  -0.000029360000,  -0.21360,
Firmware Version,FV:v4.06,,  -0.000029320000,  -0.21440,
,,,-00.000029280000,  -0.21440,
,,,-00.000029240000,  -0.21440,
,,,-00.000029200000,  -0.21440,
,,,-00.000029160000,  -0.21440,
,,,-00.000029120000,  -0.21360,
,,,-00.000029080000,  -0.21360,
,,,-00.000029040000,  -0.21360,
,,,-00.000029000000,  -0.21440,
,,,-00.000028960000,  -0.21360,
,,,-00.000028920000,  -0.21360,
,,,-00.000028880000,  -0.21360,
,,,-00.000028840000,  -0.21440,
,,,-00.000028800000,  -0.21440,
,,,-00.000028760000,  -0.21440,
,,,-00.000028720000,  -0.21440,
,,,-00.000028680000,  -0.21360,
,,,-00.000028640000,  -0.21440,
,,,-00.000028600000,  -0.21360,
,,,-00.000028560000,  -0.21360,
,,,-00.000028520000,  -0.21440,
,,,-00.000028480000,  -0.21440,
,,,-00.000028440000,  -0.21360,
,,,-00.000028400000,  -0.21360,
,,,-00.000028360000,  -0.21360,
,,,-00.000028320000,  -0.21360,
,,,-00.000028280000,  -0.21440,
,,,-00.000028240000,  -0.21520,
,,,-00.000028200000,  -0.21520,
,,,-00.000028160000,  -0.21440,
,,,-00.000028120000,  -0.21360,
,,,-00.000028080000,  -0.21360,
,,,-00.000028040000,  -0.21440,
,,,-00.000028000000,  -0.21360,
,,,-00.000027960000,  -0.21440,
,,,-00.000027920000,  -0.21440,
,,,-00.000027880000,  -0.21440,
,,,-00.000027840000,  -0.21440,
,,,-00.000027800000,  -0.21440,
,,,-00.000027760000,  -0.21440,
,,,-00.000027720000,  -0.21440,
,,,-00.000027680000,  -0.21440,
,,,-00.000027640000,  -0.21440,
,,,-00.000027600000,  -0.21360,
,,,-00.000027560000,  -0.21440,
,,,-00.000027520000,  -0.21440,
,,,-00.000027480000,  -0.21440,
,,,-00.000027440000,  -0.21440,
,,,-00.000027400000,  -0.21360,
,,,-00.000027360000,  -0.21440,
,,,-00.000027320000,  -0.21360,
,,,-00.000027280000,  -0.21440,
,,,-00.000027240000,  -0.21440,
,,,-00.000027200000,  -0.21360,
,,,-00.000027160000,  -0.21360,
,,,-00.000027120000,  -0.21440,
,,,-00.000027080000,  -0.21360,
,,,-00.000027040000,  -0.21360,
,,,-00.000027000000,  -0.21360,
,,,-00.000026960000,  -0.21360,
,,,-00.000026920000,  -0.21440,
,,,-00.000026880000,  -0.21360,
,,,-00.000026840000,  -0.21360,
,,,-00.000026800000,  -0.21360,
,,,-00.000026760000,  -0.21360,
,,,-00.000026720000,  -0.21360,
,,,-00.000026680000,  -0.21360,
,,,-00.000026640000,  -0.21360,
,,,-00.000026600000,  -0.21360,
,,,-00.000026560000,  -0.21360,
,,,-00.000026520000,  -0.21360,
,,,-00.000026480000,  -0.21360,
,,,-00.000026440000,  -0.21360,
,,,-00.000026400000,  -0.21360,
,,,-00.000026360000,  -0.21440,
,,,-00.000026320000,  -0.21440,
,,,-00.000026280000,  -0.21440,
,,,-00.000026240000,  -0.21360,
,,,-00.000026200000,  -0.21360,
,,,-00.000026160000,  -0.21440,
,,,-00.000026120000,  -0.21360,
,,,-00.000026080000,  -0.21360,
,,,-00.000026040000,  -0.21360,
,,,-00.000026000000,  -0.21360,
,,,-00.000025960000,  -0.21360,
,,,-00.000025920000,  -0.21360,
,,,-00.000025880000,  -0.21440,
,,,-00.000025840000,  -0.21360,
,,,-00.000025800000,  -0.21440,
,,,-00.000025760000,  -0.21360,
,,,-00.000025720000,  -0.21440,
,,,-00.000025680000,  -0.21360,
,,,-00.000025640000,  -0.21360,
,,,-00.000025600000,  -0.21360,
,,,-00.000025560000,  -0.21360,
,,,-00.000025520000,  -0.21440,
,,,-00.000025480000,  -0.21360,
,,,-00.000025440000,  -0.21360,
,,,-00.000025400000,  -0.21360,
,,,-00.000025360000,  -0.21360,
,,,-00.000025320000,  -0.21360,
,,,-00.000025280000,  -0.21360,
,,,-00.000025240000,  -0.21440,
,,,-00.000025200000,  -0.21360,
,,,-00.000025160000,  -0.21360,
,,,-00.000025120000,  -0.21360,
,,,-00.000025080000,  -0.21440,
,,,-00.000025040000,  -0.21440,
,,,-00.000025000000,  -0.21360,
,,,-00.000024960000,  -0.21440,
,,,-00.000024920000,  -0.21360,
,,,-00.000024880000,  -0.21360,
,,,-00.000024840000,  -0.21440,
,,,-00.000024800000,  -0.21440,
,,,-00.000024760000,  -0.21440,
,,,-00.000024720000,  -0.21360,
,,,-00.000024680000,  -0.21440,
,,,-00.000024640000,  -0.21360,
,,,-00.000024600000,  -0.21360,
,,,-00.000024560000,  -0.21360,
,,,-00.000024520000,  -0.21440,
,,,-00.000024480000,  -0.21360,
,,,-00.000024440000,  -0.21360,
,,,-00.000024400000,  -0.21360,
,,,-00.000024360000,  -0.21440,
,,,-00.000024320000,  -0.21360,
,,,-00.000024280000,  -0.21360,
,,,-00.000024240000,  -0.21360,
,,,-00.000024200000,  -0.21440,
,,,-00.000024160000,  -0.21360,
,,,-00.000024120000,  -0.21360,
,,,-00.000024080000,  -0.21360,
,,,-00.000024040000,  -0.21360,
,,,-00.000024000000,  -0.21360,
,,,-00.000023960000,  -0.21360,
,,,-00.000023920000,  -0.21360,
,,,-00.000023880000,  -0.21360,
,,,-00.000023840000,  -0.21360,
,,,-00.000023800000,  -0.21360,
,,,-00.000023760000,  -0.21440,
,,,-00.000023720000,  -0.21360,
,,,-00.000023680000,  -0.21360,
,,,-00.000023640000,  -0.21360,
,,,-00.000023600000,  -0.21360,
,,,-00.000023560000,  -0.21360,
,,,-00.000023520000,  -0.21360,
,,,-00.000023480000,  -0.21360,
,,,-00.000023440000,  -0.21360,
,,,-00.000023400000,  -0.21360,
,,,-00.000023360000,  -0.21360,
,,,-00.000023320000,  -0.21360,
,,,-00.000023280000,  -0.21360,
,,,-00.000023240000,  -0.21360,
,,,-00.000023200000,  -0.21360,
,,,-00.000023160000,  -0.21360,
,,,-00.000023120000,  -0.21360,
,,,-00.000023080000,  -0.21440,
,,,-00.000023040000,  -0.21360,
,,,-00.000023000000,  -0.21360,
,,,-00.000022960000,  -0.21440,
,,,-00.000022920000,  -0.21360,
,,,-00.000022880000,  -0.21360,
,,,-00.000022840000,  -0.21360,
,,,-00.000022800000,  -0.21360,
,,,-00.000022760000,  -0.21280,
,,,-00.000022720000,  -0.21360,
,,,-00.000022680000,  -0.21360,
,,,-00.000022640000,  -0.21360,
,,,-00.000022600000,  -0.21360,
,,,-00.000022560000,  -0.21360,
,,,-00.000022520000,  -0.21360,
,,,-00.000022480000,  -0.21360,
,,,-00.000022440000,  -0.21360,
,,,-00.000022400000,  -0.21360,
,,,-00.000022360000,  -0.21360,
,,,-00.000022320000,  -0.21360,
,,,-00.000022280000,  -0.21360,
,,,-00.000022240000,  -0.21360,
,,,-00.000022200000,  -0.21360,
,,,-00.000022160000,  -0.21360,
,,,-00.000022120000,  -0.21360,
,,,-00.000022080000,  -0.21360,
,,,-00.000022040000,  -0.21360,
,,,-00.000022000000,  -0.21280,
,,,-00.000021960000,  -0.21360,
,,,-00.000021920000,  -0.21360,
,,,-00.000021880000,  -0.21360,
,,,-00.000021840000,  -0.21280,
,,,-00.000021800000,  -0.21280,
,,,-00.000021760000,  -0.21360,
,,,-00.000021720000,  -0.21360,
,,,-00.000021680000,  -0.21520,
,,,-00.000021640000,  -0.21200,
,,,-00.000021600000,  -0.21120,
,,,-00.000021560000,  -0.21280,
,,,-00.000021520000,  -0.21360,
,,,-00.000021480000,  -0.21360,
,,,-00.000021440000,  -0.21360,
,,,-00.000021400000,  -0.21360,
,,,-00.000021360000,  -0.21360,
,,,-00.000021320000,  -0.21280,
,,,-00.000021280000,  -0.21280,
,,,-00.000021240000,  -0.21280,
,,,-00.000021200000,  -0.21280,
,,,-00.000021160000,  -0.21200,
,,,-00.000021120000,  -0.21280,
,,,-00.000021080000,  -0.21200,
,,,-00.000021040000,  -0.21200,
,,,-00.000021000000,  -0.21200,
,,,-00.000020960000,  -0.21200,
,,,-00.000020920000,  -0.21280,
,,,-00.000020880000,  -0.21200,
,,,-00.000020840000,  -0.21200,
,,,-00.000020800000,  -0.21200,
,,,-00.000020760000,  -0.21200,
,,,-00.000020720000,  -0.21200,
,,,-00.000020680000,  -0.21280,
,,,-00.000020640000,  -0.21280,
,,,-00.000020600000,  -0.21280,
,,,-00.000020560000,  -0.21280,
,,,-00.000020520000,  -0.21280,
,,,-00.000020480000,  -0.21280,
,,,-00.000020440000,  -0.21360,
,,,-00.000020400000,  -0.21280,
,,,-00.000020360000,  -0.21280,
,,,-00.000020320000,  -0.21280,
,,,-00.000020280000,  -0.21280,
,,,-00.000020240000,  -0.21280,
,,,-00.000020200000,  -0.21280,
,,,-00.000020160000,  -0.21280,
,,,-00.000020120000,  -0.21280,
,,,-00.000020080000,  -0.21200,
,,,-00.000020040000,  -0.21200,
,,,-00.000020000000,  -0.21200,
,,,-00.000019960000,  -0.21200,
,,,-00.000019920000,  -0.21200,
,,,-00.000019880000,  -0.21200,
,,,-00.000019840000,  -0.21200,
,,,-00.000019800000,  -0.21200,
,,,-00.000019760000,  -0.21200,
,,,-00.000019720000,  -0.21200,
,,,-00.000019680000,  -0.21200,
,,,-00.000019640000,  -0.21120,
,,,-00.000019600000,  -0.21200,
,,,-00.000019560000,  -0.21200,
,,,-00.000019520000,  -0.21200,
,,,-00.000019480000,  -0.21200,
,,,-00.000019440000,  -0.21200,
,,,-00.000019400000,  -0.21120,
,,,-00.000019360000,  -0.21200,
,,,-00.000019320000,  -0.21200,
,,,-00.000019280000,  -0.21200,
,,,-00.000019240000,  -0.21200,
,,,-00.000019200000,  -0.21200,
,,,-00.000019160000,  -0.21120,
,,,-00.000019120000,  -0.21200,
,,,-00.000019080000,  -0.21200,
,,,-00.000019040000,  -0.21200,
,,,-00.000019000000,  -0.21120,
,,,-00.000018960000,  -0.21200,
,,,-00.000018920000,  -0.21200,
,,,-00.000018880000,  -0.21200,
,,,-00.000018840000,  -0.21200,
,,,-00.000018800000,  -0.21120,
,,,-00.000018760000,  -0.21200,
,,,-00.000018720000,  -0.21200,
,,,-00.000018680000,  -0.21200,
,,,-00.000018640000,  -0.21200,
,,,-00.000018600000,  -0.21200,
,,,-00.000018560000,  -0.21120,
,,,-00.000018520000,  -0.21200,
,,,-00.000018480000,  -0.21120,
,,,-00.000018440000,  -0.21120,
,,,-00.000018400000,  -0.21120,
,,,-00.000018360000,  -0.21120,
,,,-00.000018320000,  -0.21120,
,,,-00.000018280000,  -0.21120,
,,,-00.000018240000,  -0.21120,
,,,-00.000018200000,  -0.21120,
,,,-00.000018160000,  -0.21120,
,,,-00.000018120000,  -0.21120,
,,,-00.000018080000,  -0.21120,
,,,-00.000018040000,  -0.21120,
,,,-00.000018000000,  -0.21120,
,,,-00.000017960000,  -0.21120,
,,,-00.000017920000,  -0.21120,
,,,-00.000017880000,  -0.21120,
,,,-00.000017840000,  -0.21120,
,,,-00.000017800000,  -0.21120,
,,,-00.000017760000,  -0.21120,
,,,-00.000017720000,  -0.21120,
,,,-00.000017680000,  -0.21120,
,,,-00.000017640000,  -0.21120,
,,,-00.000017600000,  -0.21120,
,,,-00.000017560000,  -0.21120,
,,,-00.000017520000,  -0.21120,
,,,-00.000017480000,  -0.21120,
,,,-00.000017440000,  -0.21120,
,,,-00.000017400000,  -0.21040,
,,,-00.000017360000,  -0.21040,
,,,-00.000017320000,  -0.21120,
,,,-00.000017280000,  -0.21040,
,,,-00.000017240000,  -0.21120,
,,,-00.000017200000,  -0.21040,
,,,-00.000017160000,  -0.21040,
,,,-00.000017120000,  -0.21040,
,,,-00.000017080000,  -0.21120,
,,,-00.000017040000,  -0.21040,
,,,-00.000017000000,  -0.21040,
,,,-00.000016960000,  -0.21040,
,,,-00.000016920000,  -0.21040,
,,,-00.000016880000,  -0.21040,
,,,-00.000016840000,  -0.21040,
,,,-00.000016800000,  -0.21040,
,,,-00.000016760000,  -0.21040,
,,,-00.000016720000,  -0.21040,
,,,-00.000016680000,  -0.21040,
,,,-00.000016640000,  -0.21040,
,,,-00.000016600000,  -0.21040,
,,,-00.000016560000,  -0.21040,
,,,-00.000016520000,  -0.21040,
,,,-00.000016480000,  -0.21040,
,,,-00.000016440000,  -0.20960,
,,,-00.000016400000,  -0.21120,
,,,-00.000016360000,  -0.21120,
,,,-00.000016320000,  -0.21120,
,,,-00.000016280000,  -0.21040,
,,,-00.000016240000,  -0.21040,
,,,-00.000016200000,  -0.20960,
,,,-00.000016160000,  -0.21040,
,,,-00.000016120000,  -0.20960,
,,,-00.000016080000,  -0.21040,
,,,-00.000016040000,  -0.21120,
,,,-00.000016000000,  -0.21120,
,,,-00.000015960000,  -0.21120,
,,,-00.000015920000,  -0.21120,
,,,-00.000015880000,  -0.21120,
,,,-00.000015840000,  -0.21120,
,,,-00.000015800000,  -0.21120,
,,,-00.000015760000,  -0.21120,
,,,-00.000015720000,  -0.21040,
,,,-00.000015680000,  -0.21120,
,,,-00.000015640000,  -0.21040,
,,,-00.000015600000,  -0.21040,
,,,-00.000015560000,  -0.21040,
,,,-00.000015520000,  -0.21040,
,,,-00.000015480000,  -0.21040,
,,,-00.000015440000,  -0.21040,
,,,-00.000015400000,  -0.21040,
,,,-00.000015360000,  -0.20960,
,,,-00.000015320000,  -0.21040,
,,,-00.000015280000,  -0.21040,
,,,-00.000015240000,  -0.21040,
,,,-00.000015200000,  -0.21040,
,,,-00.000015160000,  -0.20960,
,,,-00.000015120000,  -0.21040,
,,,-00.000015080000,  -0.20960,
,,,-00.000015040000,  -0.20960,
,,,-00.000015000000,  -0.20960,
,,,-00.000014960000,  -0.20960,
,,,-00.000014920000,  -0.20960,
,,,-00.000014880000,  -0.20960,
,,,-00.000014840000,  -0.21040,
,,,-00.000014800000,  -0.20960,
,,,-00.000014760000,  -0.20960,
,,,-00.000014720000,  -0.21040,
,,,-00.000014680000,  -0.21040,
,,,-00.000014640000,  -0.21040,
,,,-00.000014600000,  -0.20960,
,,,-00.000014560000,  -0.21040,
,,,-00.000014520000,  -0.21040,
,,,-00.000014480000,  -0.21040,
,,,-00.000014440000,  -0.21040,
,,,-00.000014400000,  -0.21040,
,,,-00.000014360000,  -0.20960,
,,,-00.000014320000,  -0.21040,
,,,-00.000014280000,  -0.21120,
,,,-00.000014240000,  -0.21040,
,,,-00.000014200000,  -0.21040,
,,,-00.000014160000,  -0.21040,
,,,-00.000014120000,  -0.21040,
,,,-00.000014080000,  -0.21040,
,,,-00.000014040000,  -0.21040,
,,,-00.000014000000,  -0.20960,
,,,-00.000013960000,  -0.21040,
,,,-00.000013920000,  -0.21040,
,,,-00.000013880000,  -0.20960,
,,,-00.000013840000,  -0.21040,
,,,-00.000013800000,  -0.20960,
,,,-00.000013760000,  -0.20960,
,,,-00.000013720000,  -0.20960,
,,,-00.000013680000,  -0.20960,
,,,-00.000013640000,  -0.20960,
,,,-00.000013600000,  -0.20960,
,,,-00.000013560000,  -0.20960,
,,,-00.000013520000,  -0.20960,
,,,-00.000013480000,  -0.21040,
,,,-00.000013440000,  -0.21040,
,,,-00.000013400000,  -0.21040,
,,,-00.000013360000,  -0.20960,
,,,-00.000013320000,  -0.20960,
,,,-00.000013280000,  -0.21040,
,,,-00.000013240000,  -0.21040,
,,,-00.000013200000,  -0.21040,
,,,-00.000013160000,  -0.20960,
,,,-00.000013120000,  -0.20960,
,,,-00.000013080000,  -0.21040,
,,,-00.000013040000,  -0.21040,
,,,-00.000013000000,  -0.21040,
,,,-00.000012960000,  -0.21040,
,,,-00.000012920000,  -0.20960,
,,,-00.000012880000,  -0.20960,
,,,-00.000012840000,  -0.20960,
,,,-00.000012800000,  -0.21040,
,,,-00.000012760000,  -0.21040,
,,,-00.000012720000,  -0.20960,
,,,-00.000012680000,  -0.20960,
,,,-00.000012640000,  -0.20960,
,,,-00.000012600000,  -0.20960,
,,,-00.000012560000,  -0.20960,
,,,-00.000012520000,  -0.20960,
,,,-00.000012480000,  -0.21040,
,,,-00.000012440000,  -0.20960,
,,,-00.000012400000,  -0.20960,
,,,-00.000012360000,  -0.20960,
,,,-00.000012320000,  -0.20960,
,,,-00.000012280000,  -0.20960,
,,,-00.000012240000,  -0.20960,
,,,-00.000012200000,  -0.21040,
,,,-00.000012160000,  -0.20960,
,,,-00.000012120000,  -0.21040,
,,,-00.000012080000,  -0.20960,
,,,-00.000012040000,  -0.21040,
,,,-00.000012000000,  -0.21040,
,,,-00.000011960000,  -0.21040,
,,,-00.000011920000,  -0.20960,
,,,-00.000011880000,  -0.21040,
,,,-00.000011840000,  -0.21040,
,,,-00.000011800000,  -0.20960,
,,,-00.000011760000,  -0.20960,
,,,-00.000011720000,  -0.20960,
,,,-00.000011680000,  -0.20960,
,,,-00.000011640000,  -0.21040,
,,,-00.000011600000,  -0.20960,
,,,-00.000011560000,  -0.20960,
,,,-00.000011520000,  -0.20960,
,,,-00.000011480000,  -0.20960,
,,,-00.000011440000,  -0.20960,
,,,-00.000011400000,  -0.20960,
,,,-00.000011360000,  -0.20960,
,,,-00.000011320000,  -0.20960,
,,,-00.000011280000,  -0.21040,
,,,-00.000011240000,  -0.20960,
,,,-00.000011200000,  -0.20960,
,,,-00.000011160000,  -0.20960,
,,,-00.000011120000,  -0.20960,
,,,-00.000011080000,  -0.20960,
,,,-00.000011040000,  -0.20960,
,,,-00.000011000000,  -0.21040,
,,,-00.000010960000,  -0.20960,
,,,-00.000010920000,  -0.20960,
,,,-00.000010880000,  -0.20880,
,,,-00.000010840000,  -0.20960,
,,,-00.000010800000,  -0.20960,
,,,-00.000010760000,  -0.20960,
,,,-00.000010720000,  -0.20960,
,,,-00.000010680000,  -0.20960,
,,,-00.000010640000,  -0.20960,
,,,-00.000010600000,  -0.21040,
,,,-00.000010560000,  -0.20960,
,,,-00.000010520000,  -0.20960,
,,,-00.000010480000,  -0.20960,
,,,-00.000010440000,  -0.20960,
,,,-00.000010400000,  -0.20960,
,,,-00.000010360000,  -0.21040,
,,,-00.000010320000,  -0.21040,
,,,-00.000010280000,  -0.20960,
,,,-00.000010240000,  -0.20960,
,,,-00.000010200000,  -0.20960,
,,,-00.000010160000,  -0.20960,
,,,-00.000010120000,  -0.20960,
,,,-00.000010080000,  -0.20960,
,,,-00.000010040000,  -0.20960,
,,,-00.000010000000,  -0.20960,
,,,-00.000009960000,  -0.20960,
,,,-00.000009920000,  -0.20960,
,,,-00.000009880000,  -0.20960,
,,,-00.000009840000,  -0.20960,
,,,-00.000009800000,  -0.21120,
,,,-00.000009760000,  -0.20880,
,,,-00.000009720000,  -0.20880,
,,,-00.000009680000,  -0.20880,
,,,-00.000009640000,  -0.20960,
,,,-00.000009600000,  -0.21040,
,,,-00.000009560000,  -0.21040,
,,,-00.000009520000,  -0.21040,
,,,-00.000009480000,  -0.21040,
,,,-00.000009440000,  -0.21040,
,,,-00.000009400000,  -0.20960,
,,,-00.000009360000,  -0.20960,
,,,-00.000009320000,  -0.20880,
,,,-00.000009280000,  -0.20880,
,,,-00.000009240000,  -0.20880,
,,,-00.000009200000,  -0.20880,
,,,-00.000009160000,  -0.20880,
,,,-00.000009120000,  -0.20960,
,,,-00.000009080000,  -0.20880,
,,,-00.000009040000,  -0.20880,
,,,-00.000009000000,  -0.20880,
,,,-00.000008960000,  -0.20880,
,,,-00.000008920000,  -0.20880,
,,,-00.000008880000,  -0.20880,
,,,-00.000008840000,  -0.20880,
,,,-00.000008800000,  -0.20880,
,,,-00.000008760000,  -0.20880,
,,,-00.000008720000,  -0.20880,
,,,-00.000008680000,  -0.20880,
,,,-00.000008640000,  -0.20960,
,,,-00.000008600000,  -0.20960,
,,,-00.000008560000,  -0.20960,
,,,-00.000008520000,  -0.20960,
,,,-00.000008480000,  -0.20960,
,,,-00.000008440000,  -0.20960,
,,,-00.000008400000,  -0.20960,
,,,-00.000008360000,  -0.20960,
,,,-00.000008320000,  -0.20960,
,,,-00.000008280000,  -0.20960,
,,,-00.000008240000,  -0.20960,
,,,-00.000008200000,  -0.20960,
,,,-00.000008160000,  -0.20960,
,,,-00.000008120000,  -0.20960,
,,,-00.000008080000,  -0.20880,
,,,-00.000008040000,  -0.20960,
,,,-00.000008000000,  -0.20880,
,,,-00.000007960000,  -0.20880,
,,,-00.000007920000,  -0.20960,
,,,-00.000007880000,  -0.20880,
,,,-00.000007840000,  -0.20880,
,,,-00.000007800000,  -0.20880,
,,,-00.000007760000,  -0.20880,
,,,-00.000007720000,  -0.20880,
,,,-00.000007680000,  -0.20880,
,,,-00.000007640000,  -0.20880,
,,,-00.000007600000,  -0.20880,
,,,-00.000007560000,  -0.20960,
,,,-00.000007520000,  -0.20880,
,,,-00.000007480000,  -0.20880,
,,,-00.000007440000,  -0.20880,
,,,-00.000007400000,  -0.20880,
,,,-00.000007360000,  -0.20880,
,,,-00.000007320000,  -0.20880,
,,,-00.000007280000,  -0.20880,
,,,-00.000007240000,  -0.20880,
,,,-00.000007200000,  -0.20880,
,,,-00.000007160000,  -0.20880,
,,,-00.000007120000,  -0.20880,
,,,-00.000007080000,  -0.20880,
,,,-00.000007040000,  -0.20880,
,,,-00.000007000000,  -0.20880,
,,,-00.000006960000,  -0.20880,
,,,-00.000006920000,  -0.20880,
,,,-00.000006880000,  -0.20880,
,,,-00.000006840000,  -0.20880,
,,,-00.000006800000,  -0.20880,
,,,-00.000006760000,  -0.20880,
,,,-00.000006720000,  -0.20880,
,,,-00.000006680000,  -0.20880,
,,,-00.000006640000,  -0.20880,
,,,-00.000006600000,  -0.20880,
,,,-00.000006560000,  -0.20880,
,,,-00.000006520000,  -0.20880,
,,,-00.000006480000,  -0.20880,
,,,-00.000006440000,  -0.20880,
,,,-00.000006400000,  -0.20880,
,,,-00.000006360000,  -0.20880,
,,,-00.000006320000,  -0.20800,
,,,-00.000006280000,  -0.20800,
,,,-00.000006240000,  -0.20800,
,,,-00.000006200000,  -0.20800,
,,,-00.000006160000,  -0.20800,
,,,-00.000006120000,  -0.20800,
,,,-00.000006080000,  -0.20800,
,,,-00.000006040000,  -0.20800,
,,,-00.000006000000,  -0.20880,
,,,-00.000005960000,  -0.20800,
,,,-00.000005920000,  -0.20800,
,,,-00.000005880000,  -0.20800,
,,,-00.000005840000,  -0.20800,
,,,-00.000005800000,  -0.20800,
,,,-00.000005760000,  -0.20800,
,,,-00.000005720000,  -0.20880,
,,,-00.000005680000,  -0.20800,
,,,-00.000005640000,  -0.20800,
,,,-00.000005600000,  -0.20800,
,,,-00.000005560000,  -0.20800,
,,,-00.000005520000,  -0.20800,
,,,-00.000005480000,  -0.20800,
